Date,Adj Close,Predictions
6/26/2018,1118.459961,1133.16299070516
6/27/2018,1103.97998,1124.556162934
6/28/2018,1114.219971,1113.55318710941
6/29/2018,1115.650024,1107.65354984843
7/2/2018,1127.459961,1104.31668903993
7/3/2018,1102.890015,1104.51436750332
7/5/2018,1124.27002,1104.23170772286
7/6/2018,1140.170044,1103.09302475883
7/9/2018,1154.050049,1104.61318589605
7/10/2018,1152.839966,1111.07885124291
7/11/2018,1153.900024,1118.85987233609
7/12/2018,1183.47998,1124.54991124319
7/13/2018,1188.819946,1129.2947778558
7/16/2018,1183.859985,1137.0150325143
7/17/2018,1198.800049,1146.98422874665
7/18/2018,1195.880005,1152.76254152798
7/19/2018,1186.959961,1156.2938715986
7/20/2018,1184.910034,1159.33869509042
7/23/2018,1205.5,1160.25881894375
7/24/2018,1248.079956,1161.0577850292
7/25/2018,1263.699951,1171.20573794076
7/26/2018,1268.329956,1188.65920834252
7/27/2018,1238.5,1207.73240847713
7/30/2018,1219.73999,1212.82211835478
7/31/2018,1217.26001,1211.18892664772
8/1/2018,1220.01001,1204.25971926631
8/2/2018,1226.150024,1198.27143302965
8/3/2018,1223.709961,1197.6078368892
8/6/2018,1224.77002,1198.30277483957
8/7/2018,1242.219971,1198.08646633757
8/8/2018,1245.609985,1200.88318106014
8/9/2018,1249.099976,1204.82699769036
8/10/2018,1237.609985,1210.82257756629
8/13/2018,1235.01001,1212.52808049704
8/14/2018,1242.099976,1212.03632249797
8/15/2018,1214.380005,1209.73278282439
8/16/2018,1206.48999,1207.40273598178
8/17/2018,1200.959961,1202.2695143361
8/20/2018,1207.77002,1193.66289495463
8/21/2018,1201.619995,1189.03801912763
8/22/2018,1207.329956,1186.10831010258
8/23/2018,1205.380005,1185.82439998395
8/24/2018,1220.650024,1183.9242194014
8/27/2018,1241.819946,1183.74408735021
8/28/2018,1231.150024,1187.4953519035
8/29/2018,1249.300049,1193.38744545757
8/30/2018,1239.119995,1199.75975222168
8/31/2018,1218.189941,1202.24234032004
9/4/2018,1197,1202.94336324947
9/5/2018,1186.47998,1196.23129792884
9/6/2018,1171.439941,1185.50172938231
9/7/2018,1164.829956,1174.60153135462
9/10/2018,1164.640015,1165.81940617317
9/11/2018,1177.359985,1158.69839691772
9/12/2018,1162.819946,1154.85385713755
9/13/2018,1175.329956,1153.3123568957
9/14/2018,1172.530029,1152.16292102348
9/17/2018,1156.050049,1150.95759503542
9/18/2018,1161.219971,1150.59774771243
9/19/2018,1171.089966,1148.05285109567
9/20/2018,1186.869995,1145.31369360649
9/21/2018,1166.089966,1148.00033689287
9/24/2018,1173.369995,1151.62556735944
9/25/2018,1184.650024,1152.45720894885
9/26/2018,1180.48999,1149.33699006587
9/27/2018,1194.640015,1150.28137047954
9/28/2018,1193.469971,1153.70337931686
10/1/2018,1195.310059,1154.74224361764
10/2/2018,1200.109985,1156.84881335278
10/3/2018,1202.949951,1157.88609389188
10/4/2018,1168.189941,1160.43895099494
10/5/2018,1157.349976,1159.04611596054
10/8/2018,1148.969971,1153.20520291523
10/9/2018,1138.819946,1142.27778919355
10/10/2018,1081.219971,1134.9036698162
10/11/2018,1079.319946,1125.01632905552
10/12/2018,1110.079956,1111.70539569584
10/15/2018,1092.25,1098.24321309651
10/16/2018,1121.280029,1095.51964315641
10/17/2018,1115.689941,1100.24804698321
10/18/2018,1087.969971,1100.7430558615
10/19/2018,1096.459961,1102.03790606195
10/22/2018,1101.160034,1097.80642829862
10/23/2018,1103.689941,1092.84116874602
10/24/2018,1050.709961,1092.17232118529
10/25/2018,1095.569946,1087.56119907807
10/26/2018,1071.469971,1081.36231421701
10/29/2018,1020.080017,1074.41539371163
10/30/2018,1036.209961,1068.24747555905
10/31/2018,1076.77002,1051.51369980327
11/1/2018,1070,1044.10548787204
11/2/2018,1057.790039,1046.42711577102
11/5/2018,1040.089966,1053.55896129054
11/6/2018,1055.810059,1047.81199031913
11/7/2018,1093.390015,1040.97314070888
11/8/2018,1082.400024,1040.54319109294
11/9/2018,1066.150024,1049.33815307953
11/12/2018,1038.630005,1055.55979409513
11/13/2018,1036.050049,1050.09860874959
11/14/2018,1043.660034,1040.75045548225
11/15/2018,1064.709961,1033.73543322499
11/16/2018,1061.48999,1033.9654120909
11/19/2018,1020,1037.30748264174
11/20/2018,1025.76001,1036.55702967698
11/21/2018,1037.609985,1028.61338126688
11/23/2018,1023.880005,1019.84138382454
11/26/2018,1048.619995,1017.33816514651
11/27/2018,1044.410034,1020.96414581598
11/28/2018,1086.22998,1021.66304317053
11/29/2018,1088.300049,1029.29573247976
11/30/2018,1094.430054,1037.72847150085
12/3/2018,1106.430054,1049.76151758114
12/4/2018,1050.819946,1059.30122265488
12/6/2018,1068.72998,1062.46228591782
12/7/2018,1036.579956,1059.90009295649
12/10/2018,1039.550049,1046.99239365401
12/11/2018,1051.75,1040.06376976374
12/12/2018,1063.680054,1035.81949687322
12/13/2018,1061.900024,1037.63511291809
12/14/2018,1042.099976,1043.39938023408
12/17/2018,1016.530029,1044.37456064447
12/18/2018,1028.709961,1037.65832752996
12/19/2018,1023.01001,1028.94476255772
12/20/2018,1009.409973,1023.49041239413
12/21/2018,979.539978,1021.64187077766
12/24/2018,976.219971,1014.94068339903
12/26/2018,1039.459961,1004.31143365102
12/27/2018,1043.880005,1000.18240026109
12/28/2018,1037.079956,1006.58767427474
12/31/2018,1035.609985,1019.06359013197
1/2/2019,1045.849976,1022.65072696254
1/3/2019,1016.059998,1024.43129186095
1/4/2019,1070.709961,1021.71847482904
1/7/2019,1068.390015,1022.43887799998
1/8/2019,1076.280029,1028.12608280726
1/9/2019,1074.660034,1040.0670623209
1/10/2019,1070.329956,1046.13036884727
1/11/2019,1057.189941,1049.54933519507
1/14/2019,1044.689941,1048.79438101292
1/15/2019,1077.150024,1044.07706351782
1/16/2019,1080.969971,1042.18330133783
1/17/2019,1089.900024,1046.02442352702
1/18/2019,1098.26001,1055.53057786008
1/22/2019,1070.52002,1062.89948749509
1/23/2019,1075.569946,1065.54932916158
1/24/2019,1073.900024,1064.38338882562
1/25/2019,1090.98999,1058.56623220539
1/28/2019,1070.079956,1060.49396190544
1/29/2019,1060.619995,1062.506381177
1/30/2019,1089.060059,1062.30520176675
1/31/2019,1116.369995,1058.80863109704
2/1/2019,1110.75,1064.48766702832
2/4/2019,1132.800049,1075.54732484959
2/5/2019,1145.98999,1086.272892314
2/6/2019,1115.22998,1094.34749280758
2/7/2019,1098.709961,1100.8902623411
2/8/2019,1095.060059,1099.51976668185
2/11/2019,1095.01001,1091.72199105731
2/12/2019,1121.369995,1084.98220990742
2/13/2019,1120.160034,1086.15769449135
2/14/2019,1121.670044,1091.77692258056
2/15/2019,1113.650024,1098.22708373422
2/19/2019,1118.560059,1099.89803565376
2/20/2019,1113.800049,1099.52268413756
2/21/2019,1096.969971,1098.94115185847
2/22/2019,1110.369995,1096.62135778879
2/25/2019,1109.400024,1093.98947931389
2/26/2019,1115.130005,1092.23571333009
2/27/2019,1116.050049,1094.28931040511
2/28/2019,1119.920044,1094.68562592449
3/1/2019,1140.98999,1095.04318096085
3/4/2019,1147.800049,1098.92539759763
3/5/2019,1162.030029,1106.19440521351
3/6/2019,1157.859985,1116.00164097595
3/7/2019,1143.300049,1123.35425453692
3/8/2019,1142.319946,1126.6603153487
3/11/2019,1175.76001,1124.62226414483
3/12/2019,1193.199951,1124.35335808415
3/13/2019,1193.319946,1132.49476831351
3/14/2019,1185.550049,1146.96455675957
3/15/2019,1184.459961,1155.96411574737
3/18/2019,1184.26001,1159.19011323885
3/19/2019,1198.849976,1159.33506910975
3/20/2019,1223.969971,1161.5451668447
3/21/2019,1231.540039,1168.10410741844
3/22/2019,1205.5,1178.39814150525
3/25/2019,1193,1185.48168229378
3/26/2019,1184.619995,1184.81546044319
3/27/2019,1173.02002,1178.22847061668
3/28/2019,1168.48999,1171.33802371828
3/29/2019,1173.310059,1165.64231661151
4/1/2019,1194.430054,1160.85089574135
4/2/2019,1200.48999,1161.30597715433
4/3/2019,1205.920044,1166.19825863622
4/4/2019,1215,1172.8866925656
4/5/2019,1207.150024,1177.45338599013
4/8/2019,1203.839966,1180.71389281488
4/9/2019,1197.25,1181.64393601763
4/10/2019,1202.160034,1180.38447038716
4/11/2019,1204.619995,1178.84884673467
4/12/2019,1217.869995,1178.28494422366
4/15/2019,1221.099976,1181.22565622454
4/16/2019,1227.130005,1185.05194106754
4/17/2019,1236.339966,1189.98060738994
4/18/2019,1236.369995,1194.60077360986
4/22/2019,1248.839966,1199.68306481442
4/23/2019,1264.550049,1204.46135713388
4/24/2019,1256,1210.33919683291
4/25/2019,1263.449951,1217.18729894555
4/26/2019,1272.180054,1223.15762199062
4/29/2019,1287.579956,1226.84899534595
4/30/2019,1188.47998,1233.2941968249
5/1/2019,1168.079956,1228.60697080157
5/2/2019,1162.609985,1209.82805859233
5/3/2019,1185.400024,1180.78424517545
5/6/2019,1189.390015,1175.45317835462
5/7/2019,1174.099976,1173.98803209652
5/8/2019,1166.27002,1174.93412130568
5/9/2019,1162.380005,1170.92495366754
5/10/2019,1164.27002,1165.43030093719
5/13/2019,1132.030029,1161.14464185351
5/14/2019,1120.439941,1155.68545704902
5/15/2019,1164.209961,1148.5177685022
5/16/2019,1178.97998,1141.59102011917
5/17/2019,1162.300049,1145.38100347754
5/20/2019,1138.849976,1153.32781941097
5/21/2019,1149.630005,1153.46506486321
5/22/2019,1151.420044,1145.83996093883
5/23/2019,1140.77002,1139.96199620599
5/24/2019,1133.469971,1139.10051321245
5/28/2019,1134.150024,1134.56353615823
5/29/2019,1116.459961,1127.04237701304
5/30/2019,1117.949951,1120.51923778866
5/31/2019,1103.630005,1114.45318051833
6/3/2019,1036.22998,1107.07318455162
6/4/2019,1053.050049,1096.63465305124
6/5/2019,1042.219971,1079.88570652576
6/6/2019,1044.339966,1062.48737603694
6/7/2019,1066.040039,1059.7665568408
6/10/2019,1080.380005,1057.90263606493
6/11/2019,1078.719971,1061.31430877346
6/12/2019,1077.030029,1068.33870856693
6/13/2019,1088.77002,1072.53250947365
6/14/2019,1085.349976,1073.81802381582
6/17/2019,1092.5,1074.20204434328
6/18/2019,1103.599976,1076.78920238991
6/19/2019,1102.329956,1079.17889036285
6/20/2019,1111.420044,1083.28841847746
6/21/2019,1121.880005,1087.6363444016
6/24/2019,1115.52002,1090.59702013513
6/25/2019,1086.349976,1094.87709437502
6/26/2019,1079.800049,1093.38164825546
6/27/2019,1076.01001,1087.1899736778
6/28/2019,1080.910034,1078.53730017404
7/1/2019,1097.949951,1073.91021541629
7/2/2019,1111.25,1074.49141427188
7/3/2019,1121.579956,1078.99275668848
7/5/2019,1131.589966,1087.59550002164
7/8/2019,1116.349976,1094.6872513641
7/9/2019,1124.829956,1099.77225163468
7/10/2019,1140.47998,1101.83460107683
7/11/2019,1144.209961,1104.44063922971
7/12/2019,1144.900024,1111.34263091713
7/15/2019,1150.339966,1119.05625878338
7/16/2019,1153.579956,1123.58865126434
7/17/2019,1146.349976,1127.17978917703
7/18/2019,1146.329956,1130.46909545744
7/19/2019,1130.099976,1131.68234025386
7/22/2019,1138.069946,1130.31997179266
7/23/2019,1146.209961,1128.2696672748
7/24/2019,1137.810059,1127.82825622572
7/25/2019,1132.119995,1128.77405368931
7/26/2019,1250.410034,1128.46613707798
7/29/2019,1239.410034,1141.11130704439
7/30/2019,1225.140015,1167.24195757789
7/31/2019,1216.680054,1196.28464569041
8/1/2019,1209.01001,1198.10213724253
8/2/2019,1193.98999,1197.23590296398
8/5/2019,1152.319946,1195.17434540266
8/6/2019,1169.949951,1187.22423691206
8/7/2019,1173.98999,1176.53134495162
8/8/2019,1204.800049,1168.34379724408
8/9/2019,1188.01001,1173.00860053638
8/12/2019,1174.709961,1177.28675759109
8/13/2019,1197.27002,1180.86239131057
8/14/2019,1164.290039,1178.50846300907
8/15/2019,1167.26001,1175.15063819738
8/16/2019,1177.599976,1173.25629252625
8/19/2019,1198.449951,1168.52509627755
8/20/2019,1182.689941,1172.27756949106
8/21/2019,1191.25,1177.69686850819
8/22/2019,1189.530029,1181.22323890409
8/23/2019,1151.290039,1180.13186040052
8/26/2019,1168.890015,1177.89225468495
8/27/2019,1167.839966,1171.5016096278
8/28/2019,1171.02002,1164.75232590788
8/29/2019,1192.849976,1164.32866966069
8/30/2019,1188.099976,1166.34346457475
9/3/2019,1168.390015,1169.2713397705
9/4/2019,1181.410034,1171.86700011664
9/5/2019,1211.380005,1169.2373305725
9/6/2019,1204.930054,1169.96973698979
9/9/2019,1204.410034,1178.22159375679
9/10/2019,1206,1185.47722275434
9/11/2019,1220.170044,1186.6771722883
9/12/2019,1234.25,1188.59539941833
9/13/2019,1239.560059,1194.07929924048
9/16/2019,1231.300049,1202.90897895002
9/17/2019,1229.150024,1209.51697445765
9/18/2019,1232.410034,1211.70152361616
9/19/2019,1238.709961,1212.02836201167
9/20/2019,1229.930054,1214.20024107681
9/23/2019,1234.030029,1216.60147383877
9/24/2019,1218.76001,1217.88452918256
9/25/2019,1246.52002,1215.88503007201
9/26/2019,1241.390015,1216.71679669524
9/27/2019,1225.089966,1218.56783898803
9/30/2019,1219,1221.11461111204
10/1/2019,1205.099976,1219.21293012369
10/2/2019,1176.630005,1213.42469799293
10/3/2019,1187.829956,1205.20914271057
10/4/2019,1209,1197.00659094509
10/7/2019,1207.680054,1191.74912736405
10/8/2019,1189.130005,1195.12145609841
10/9/2019,1202.310059,1198.05204036018
10/10/2019,1208.670044,1196.64428462371
10/11/2019,1215.449951,1195.06018952848
10/14/2019,1217.140015,1199.17084294743
10/15/2019,1243.01001,1202.55217411656
10/16/2019,1243.640015,1208.12855728475
10/17/2019,1253.069946,1213.7437426139
10/18/2019,1245.48999,1222.21915984425
10/21/2019,1246.150024,1227.28986458184
10/22/2019,1242.800049,1230.38278441495
10/23/2019,1259.130005,1230.34456574514
10/24/2019,1260.98999,1232.32155876877
10/25/2019,1265.130005,1235.57994001865
10/28/2019,1290,1240.51119037325
10/29/2019,1262.619995,1246.94951499231
10/30/2019,1261.290039,1251.64878593994
10/31/2019,1260.109985,1253.60048045477
11/1/2019,1273.73999,1248.67644038357
11/4/2019,1291.369995,1249.11568417984
11/5/2019,1292.030029,1254.59654151246
11/6/2019,1291.800049,1262.3013336557
11/7/2019,1308.859985,1268.39923287121
11/8/2019,1311.369995,1273.16397986059
11/11/2019,1299.189941,1278.38011976537
11/12/2019,1298.800049,1283.40443695716
11/13/2019,1298,1284.27325526791
11/14/2019,1311.459961,1283.25343778514
11/15/2019,1334.869995,1284.97148577545
11/18/2019,1320.699951,1290.33716612439
11/19/2019,1315.459961,1297.8653896802
11/20/2019,1303.050049,1302.57274614795
11/21/2019,1301.349976,1300.21337887544
11/22/2019,1295.339966,1296.67225448922
11/25/2019,1306.689941,1292.61905410881
11/26/2019,1313.550049,1291.94574700863
11/27/2019,1312.98999,1292.99536421759
11/29/2019,1304.959961,1295.5972345766
12/2/2019,1289.920044,1296.05110732937
12/3/2019,1295.280029,1293.15607434934
12/4/2019,1320.540039,1288.362048608
12/5/2019,1328.130005,1287.52034179639
12/6/2019,1340.619995,1293.26035255204
12/9/2019,1343.560059,1303.62165483195
12/10/2019,1344.660034,1311.04987217378
12/11/2019,1345.02002,1316.75772839969
12/12/2019,1350.27002,1320.00023035491
12/13/2019,1347.829956,1322.83708093247
12/16/2019,1361.170044,1325.97949331783
12/17/2019,1355.119995,1329.43019741598
12/18/2019,1352.619995,1332.89625983454
12/19/2019,1356.040039,1336.13090549831
12/20/2019,1349.589966,1336.04509062246
12/23/2019,1348.839966,1336.27206867678
12/24/2019,1343.560059,1336.15820454817
12/26/2019,1360.400024,1334.84151510783
12/27/2019,1351.890015,1335.21711669166
12/30/2019,1336.140015,1336.2163452727
12/31/2019,1337.02002,1336.62649786774
1/2/2020,1367.369995,1332.24439603384
1/3/2020,1360.660034,1329.46581121462
1/6/2020,1394.209961,1332.0268163547
1/7/2020,1393.339966,1340.63264385533
1/8/2020,1404.319946,1348.17124521788
1/9/2020,1419.829956,1359.07140156763
1/10/2020,1429.72998,1369.19943242447
1/13/2020,1439.22998,1379.51005433089
1/14/2020,1430.880005,1391.0900612172
1/15/2020,1439.199951,1398.70860086623
1/16/2020,1451.699951,1404.12933777224
1/17/2020,1480.390015,1408.90129504501
1/21/2020,1484.400024,1418.75535597162
1/22/2020,1485.949951,1431.72717678283
1/23/2020,1486.650024,1443.71884708945
1/24/2020,1466.709961,1450.81240100276
1/27/2020,1433.900024,1453.96683747344
1/28/2020,1452.560059,1448.52863751111
1/29/2020,1458.630005,1439.77612450512
1/30/2020,1455.839966,1433.2214559201
1/31/2020,1434.22998,1436.46306179964
2/3/2020,1485.939941,1435.5179103441
2/4/2020,1447.069946,1435.92889649791
2/5/2020,1448.22998,1437.88029926716
2/6/2020,1476.22998,1439.2790317299
2/7/2020,1479.22998,1434.78592070619
2/10/2020,1508.680054,1440.02944301672
2/11/2020,1508.790039,1448.91233503454
2/12/2020,1518.27002,1458.24317111833
2/13/2020,1514.660034,1468.60330641596
2/14/2020,1520.73999,1475.2640140966
2/18/2020,1519.670044,1479.1664862116
2/19/2020,1526.689941,1482.32452782398
2/20/2020,1518.150024,1486.35982752971
2/21/2020,1485.109985,1488.98835093054
2/24/2020,1421.589966,1487.09594328355
2/25/2020,1388.449951,1472.36630330901
2/26/2020,1393.180054,1448.47212222619
2/27/2020,1318.089966,1424.3022936761
2/28/2020,1339.329956,1408.49018385739
3/2/2020,1389.109985,1389.60761861453
3/3/2020,1341.390015,1372.86671593122
3/4/2020,1386.52002,1372.64117576579
3/5/2020,1319.040039,1381.23406226644
3/6/2020,1298.410034,1374.79834251855
3/9/2020,1215.560059,1363.19672562101
3/10/2020,1280.390015,1334.06588866807
3/11/2020,1215.410034,1311.26257553408
3/12/2020,1114.910034,1293.04116827226
3/13/2020,1219.72998,1280.46964322358
3/16/2020,1084.329956,1252.21293851858
3/17/2020,1119.800049,1222.80540173042
3/18/2020,1096.800049,1211.00516861586
3/19/2020,1115.290039,1176.20471494579
3/20/2020,1072.319946,1166.54468566294
3/23/2020,1056.619995,1153.78315089159
3/24/2020,1134.459961,1144.69502628399
3/25/2020,1102.48999,1135.40680589254
3/26/2020,1161.75,1134.01172024945
3/27/2020,1110.709961,1148.53493981296
3/30/2020,1146.819946,1147.76744057125
3/31/2020,1162.810059,1149.72076052569
4/1/2020,1105.619995,1147.03582603479
4/2/2020,1120.839966,1146.91395974195
4/3/2020,1097.880005,1138.39986538446
4/6/2020,1186.920044,1122.19560784024
4/7/2020,1186.51001,1125.45840695162
4/8/2020,1210.280029,1138.39823994485
4/9/2020,1211.449951,1161.97344934309
4/13/2020,1217.560059,1175.55099647682
4/14/2020,1269.22998,1183.88679261242
4/15/2020,1262.469971,1196.52687787031
4/16/2020,1263.469971,1213.06710127863
4/17/2020,1283.25,1231.03471073256
4/20/2020,1266.609985,1240.7088271587
4/21/2020,1216.339966,1249.96820641655
4/22/2020,1263.209961,1250.38477741415
4/23/2020,1276.310059,1245.39509458945
4/24/2020,1279.310059,1247.08880266354
4/27/2020,1275.880005,1260.49109406492
4/28/2020,1233.670044,1266.8567531978
4/29/2020,1341.47998,1266.13701687388
4/30/2020,1348.660034,1276.0578666973
5/1/2020,1320.609985,1291.88802306349
5/4/2020,1326.800049,1314.90943685085
5/5/2020,1351.109985,1313.66549625256
5/6/2020,1347.300049,1314.86598759973
5/7/2020,1372.560059,1323.20557642775
5/8/2020,1388.369995,1336.61424455375
5/11/2020,1403.26001,1347.47661985204
5/12/2020,1375.73999,1360.61898678853
5/13/2020,1349.329956,1369.42557692002
5/14/2020,1356.130005,1369.40098693617
5/15/2020,1373.189941,1362.36554248893
5/18/2020,1383.939941,1356.49237071904
5/19/2020,1373.484985,1359.13821130341
5/20/2020,1406.719971,1364.53544185198
5/21/2020,1402.800049,1370.2005781907
5/22/2020,1410.420044,1377.0385734032
5/26/2020,1417.02002,1384.95260963783
5/27/2020,1417.839966,1389.98219908886
5/28/2020,1416.72998,1393.46136921915
5/29/2020,1428.920044,1396.96627547661
6/1/2020,1431.819946,1398.56627070547
6/2/2020,1439.219971,1402.08574340251
6/3/2020,1436.380005,1406.62272045673
6/4/2020,1412.180054,1410.12529274962
6/5/2020,1438.390015,1410.98560876088
6/8/2020,1446.609985,1410.12625134221
6/9/2020,1456.160034,1410.15230005392
6/10/2020,1465.849976,1417.0521453275
6/11/2020,1403.839966,1424.31761031859
6/12/2020,1413.180054,1424.98370713536
6/15/2020,1419.849976,1417.44304271485
6/16/2020,1442.719971,1405.28281640452
6/17/2020,1451.119995,1406.60409041812
6/18/2020,1435.959961,1411.67696240852
6/19/2020,1431.719971,1419.03486906771
6/22/2020,1451.859985,1418.68325313762
6/23/2020,1464.410034,1416.85873885283
6/24/2020,1431.969971,1419.81487169103
6/25/2020,1441.329956,1424.15717109345
6/26/2020,1359.900024,1424.18865877616
6/29/2020,1394.969971,1413.41718306224
6/30/2020,1413.609985,1400.69292920708
7/1/2020,1438.040039,1388.54235133957
7/2/2020,1464.699951,1393.51634242034
7/6/2020,1495.699951,1405.63849593364
7/7/2020,1485.180054,1421.47202821286
7/8/2020,1496,1436.94773454912
7/9/2020,1510.98999,1447.75883556329
7/10/2020,1541.73999,1454.12819361324
7/13/2020,1511.339966,1464.97890950817
7/14/2020,1520.579956,1475.85575747068
7/15/2020,1513.640015,1481.80171976056
7/16/2020,1518,1482.07423096294
7/17/2020,1515.550049,1480.84819103934
7/20/2020,1565.719971,1483.01675670834
7/21/2020,1558.420044,1488.3202535727
7/22/2020,1568.48999,1500.53841221787
7/23/2020,1515.680054,1514.56615402627
7/24/2020,1511.869995,1517.86630699024
7/27/2020,1530.199951,1510.01745505178
7/28/2020,1500.339966,1499.32865794882
7/29/2020,1522.02002,1492.7914003227
7/30/2020,1531.449951,1492.42975042886
7/31/2020,1482.959961,1489.09571330071
8/3/2020,1474.449951,1486.47702589342
8/4/2020,1464.969971,1477.86125820441
8/5/2020,1473.609985,1465.92854134212
8/6/2020,1500.099976,1461.26595740005
8/7/2020,1494.48999,1460.43626425428
8/10/2020,1496.099976,1463.72987378187
8/11/2020,1480.319946,1467.25131576152
8/12/2020,1506.619995,1466.45233925659
8/13/2020,1518.449951,1465.30350771448
8/14/2020,1507.72998,1468.55934661009
8/17/2020,1517.97998,1474.53333731376
8/18/2020,1558.599976,1478.01557077255
8/19/2020,1547.530029,1481.80331394172
8/20/2020,1581.75,1490.39090734415
8/21/2020,1580.420044,1501.76009679688
8/24/2020,1588.199951,1510.52840574164
8/25/2020,1608.219971,1521.36577427669
8/26/2020,1652.380005,1531.60257934388
8/27/2020,1634.329956,1545.95420562389
8/28/2020,1644.410034,1560.63447287028
8/31/2020,1634.180054,1574.50384893099
9/1/2020,1660.709961,1580.16599748248
9/2/2020,1728.280029,1585.96933005141
9/3/2020,1641.839966,1600.26074603675
9/4/2020,1591.040039,1614.38848787257
9/8/2020,1532.390015,1613.84957063461
9/9/2020,1556.959961,1585.16230449456
9/10/2020,1532.02002,1558.4192539586
9/11/2020,1520.719971,1541.92630896203
9/14/2020,1519.280029,1538.67241851005
9/15/2020,1541.439941,1529.83219428201
9/16/2020,1520.900024,1524.16570862003
9/17/2020,1495.530029,1522.89340618443
9/18/2020,1459.98999,1518.44398406
9/21/2020,1431.160034,1505.22113702382
9/22/2020,1465.459961,1485.4264292529
9/23/2020,1415.209961,1472.11673581189
9/24/2020,1428.290039,1461.53117496316
9/25/2020,1444.959961,1457.5384075939
9/28/2020,1464.52002,1446.9673819263
9/29/2020,1469.329956,1446.64254407184
9/30/2020,1469.599976,1451.30726400827
10/1/2020,1490.089966,1455.15540893013
10/2/2020,1458.420044,1453.55113129307
10/5/2020,1486.02002,1448.59385306574
10/6/2020,1453.439941,1445.2081769715
10/7/2020,1460.290039,1437.88215393544
10/8/2020,1485.930054,1436.14858091295
10/9/2020,1515.219971,1432.42707440791
10/12/2020,1569.150024,1438.50421800994
10/13/2020,1571.680054,1456.61538712383
10/14/2020,1568.079956,1478.90351925719
10/15/2020,1559.130005,1498.16104007583
10/16/2020,1573.01001,1504.42342127654
10/19/2020,1534.609985,1507.02060286744
10/20/2020,1555.930054,1507.69553540722
10/21/2020,1593.310059,1509.77545210055
10/22/2020,1615.329956,1512.52717548826
10/23/2020,1641,1524.61233983094
10/26/2020,1590.449951,1544.14954566716
10/27/2020,1604.26001,1554.7540803975
10/28/2020,1516.619995,1558.26665539569
10/29/2020,1567.23999,1545.12334028609
10/30/2020,1621.01001,1534.54953782582
11/2/2020,1626.030029,1533.08072390912
11/3/2020,1650.209961,1554.89501955706
11/4/2020,1749.130005,1576.1596248711
11/5/2020,1763.369995,1593.78286514653
11/6/2020,1761.75,1626.71893958342
11/9/2020,1763,1662.64548948002
11/10/2020,1740.390015,1680.9615838089
11/11/2020,1752.709961,1687.52080570873
11/12/2020,1749.839966,1692.25594573238
11/13/2020,1777.02002,1691.03610540216
11/16/2020,1781.380005,1699.9337409908
11/17/2020,1770.150024,1707.47727597934
11/18/2020,1746.780029,1715.00931306654
11/19/2020,1763.920044,1716.09656545418
11/20/2020,1742.189941,1713.25781853041
11/23/2020,1734.859985,1710.19444835585
11/24/2020,1768.880005,1707.94248513144
11/25/2020,1771.430054,1705.71146507125
11/27/2020,1793.189941,1705.70480702054
11/30/2020,1760.73999,1711.64669529191
12/1/2020,1798.099976,1715.20701236891
12/2/2020,1827.949951,1717.89378068911
12/3/2020,1826.77002,1720.87578510778
12/4/2020,1827.98999,1734.40355836319
12/7/2020,1819.47998,1745.59117787584
12/8/2020,1818.550049,1750.05715656143
12/9/2020,1784.130005,1749.67156269179
12/10/2020,1775.329956,1745.76181777648
12/11/2020,1781.77002,1737.99850980727
12/14/2020,1760.060059,1728.60521933229
12/15/2020,1767.77002,1721.50319437793
12/16/2020,1763,1718.6143505718
12/17/2020,1747.900024,1714.41473559263
12/18/2020,1731.01001,1710.64852949831
12/21/2020,1739.369995,1705.47679743724
12/22/2020,1723.5,1697.32660879203
12/23/2020,1732.380005,1689.10947495773
12/24/2020,1738.849976,1685.64250083426
12/28/2020,1776.089966,1685.32409180185
12/29/2020,1758.719971,1690.26687652599
12/30/2020,1739.52002,1696.88435376468
12/31/2020,1751.880005,1701.2252882146
1/4/2021,1728.23999,1697.19379683052
1/5/2021,1740.920044,1690.31601481576
1/6/2021,1735.290039,1686.30636788131
1/7/2021,1787.25,1680.16814526008
1/8/2021,1807.209961,1680.30435918333
1/11/2021,1766.719971,1687.85721961067
1/12/2021,1746.550049,1700.44941170721
1/13/2021,1754.400024,1699.8896926193
1/14/2021,1740.180054,1690.53751222113
1/15/2021,1736.189941,1684.60617888775
1/19/2021,1790.859985,1682.34923514967
1/20/2021,1886.900024,1684.51552937101
1/21/2021,1891.25,1703.97145280723
1/22/2021,1901.050049,1740.16528332491
1/25/2021,1899.400024,1773.71202292006
1/26/2021,1917.23999,1790.01830805829
1/27/2021,1830.790039,1800.80249554353
1/28/2021,1863.109985,1803.00948827204
1/29/2021,1835.73999,1798.25847416348
2/1/2021,1901.349976,1786.79614493717
2/2/2021,1927.51001,1791.92857470202
2/3/2021,2070.070068,1802.53448480434
2/4/2021,2062.370117,1843.48818599256
2/5/2021,2098,1890.00891365173
2/8/2021,2092.909912,1936.50075849936
2/9/2021,2083.51001,1955.51271290301
2/10/2021,2095.379883,1973.18993131884
2/11/2021,2095.889893,1983.41061223348
2/12/2021,2104.110107,1990.35386508025
2/16/2021,2121.899902,1999.10802436482
2/17/2021,2128.310059,2007.50775445843
2/18/2021,2117.199951,2016.12150076741
2/19/2021,2101.139893,2024.36723087742
2/22/2021,2064.879883,2026.32155110238
2/23/2021,2070.860107,2021.92261138124
2/24/2021,2095.169922,2011.43510830285
2/25/2021,2031.359985,2001.29840843475
2/26/2021,2036.859985,1995.1771278956
3/1/2021,2081.51001,1989.19842758485
3/2/2021,2075.840088,1980.26409457116
3/3/2021,2026.709961,1981.53814748018
3/4/2021,2049.090088,1982.0027314632
3/5/2021,2108.540039,1976.11409717804
3/8/2021,2024.170044,1974.43735202502
3/9/2021,2052.699951,1979.55306893643
3/10/2021,2055.030029,1982.96690889777
3/11/2021,2114.77002,1975.70773727543
3/12/2021,2061.919922,1981.31212801845
3/15/2021,2066.48999,1985.83793538509
3/16/2021,2092.52002,1987.7560374813
3/17/2021,2091.080078,1981.64988603392
3/18/2021,2036.219971,1983.8543155692
3/19/2021,2043.199951,1983.07481308114
3/22/2021,2038.589966,1972.2761425122
3/23/2021,2052.959961,1960.34516570385
3/24/2021,2045.060059,1957.91913456834
3/25/2021,2044.359985,1958.4019943275
3/26/2021,2035.550049,1958.92842837159
3/29/2021,2055.949951,1955.04489887974
3/30/2021,2055.540039,1951.13752960694
3/31/2021,2068.629883,1951.67644619368
4/1/2021,2137.75,1956.61449005229
4/5/2021,2225.550049,1968.94978454426
4/6/2021,2224.75,1996.71675263021
4/7/2021,2249.679932,2034.54927634286
4/8/2021,2265.439941,2067.31793049986
4/9/2021,2285.879883,2089.79413433174
4/12/2021,2254.790039,2111.289864655
4/13/2021,2267.27002,2126.85169845165
4/14/2021,2254.840088,2133.96904004849
4/15/2021,2296.659912,2137.47823913364
4/16/2021,2297.76001,2147.4194694691
4/19/2021,2302.399902,2157.91009839289
4/20/2021,2293.629883,2170.27831845645
4/21/2021,2293.290039,2176.03312488034
4/22/2021,2267.919922,2178.09239015503
4/23/2021,2315.300049,2176.57885581007
4/26/2021,2326.73999,2177.50552309978
4/27/2021,2307.120117,2183.95593432107
4/28/2021,2379.909912,2193.46988242867
4/29/2021,2429.889893,2206.4768585812
4/30/2021,2410.120117,2226.11508653116
5/3/2021,2395.169922,2252.27449484238
5/4/2021,2354.25,2261.4173009056
5/5/2021,2356.73999,2256.71777989034
5/6/2021,2381.350098,2249.11134768251
5/7/2021,2398.689941,2243.10509825425
5/10/2021,2341.659912,2250.38798462373
5/11/2021,2308.76001,2252.75645852585
5/12/2021,2239.080078,2244.03885079355
5/13/2021,2261.969971,2216.28559474944
5/14/2021,2316.159912,2192.34587009908
5/17/2021,2321.409912,2183.18022452543
5/18/2021,2303.429932,2191.73287097624
5/19/2021,2308.709961,2200.86267352258
5/20/2021,2356.090088,2199.28899791203
5/21/2021,2345.100098,2199.82797701568
5/24/2021,2406.669922,2204.83583142166
5/25/2021,2409.070068,2223.47662294195
5/26/2021,2433.530029,2238.9017947775
5/27/2021,2402.51001,2257.55579820437
5/28/2021,2411.560059,2267.41975764143
6/1/2021,2429.810059,2271.36369930546
6/2/2021,2421.280029,2272.87006504496
6/3/2021,2404.610107,2277.50615223748
6/4/2021,2451.76001,2278.92286873078
6/7/2021,2466.090088,2280.54714135894
6/8/2021,2482.850098,2286.82834014899
6/9/2021,2491.399902,2303.87824307004
6/10/2021,2521.600098,2317.0165464075
6/11/2021,2513.929932,2330.11909007353
6/14/2021,2527.040039,2340.54290926154
6/15/2021,2520.659912,2350.24695044769
6/16/2021,2513.929932,2357.59918890721
6/17/2021,2527.419922,2361.85125557228
6/18/2021,2511.350098,2364.09519579347
6/21/2021,2529.100098,2364.58316110012
6/22/2021,2539.98999,2366.54469160849
6/23/2021,2529.22998,2368.43486948575
6/24/2021,2545.639893,2374.56452729058
6/25/2021,2539.899902,2379.39550052459
6/28/2021,2536.389893,2381.6974564365
6/29/2021,2520.370117,2383.42942485835
6/30/2021,2506.320068,2380.71802487636
7/1/2021,2527.370117,2375.75985057334
7/2/2021,2574.379883,2369.30243745834
7/6/2021,2595.419922,2370.53627115649
7/7/2021,2601.550049,2384.49104531366
7/8/2021,2583.540039,2403.34114344225
7/9/2021,2591.48999,2412.99308720499
7/12/2021,2611.280029,2415.45225230179
7/13/2021,2619.889893,2416.59522809351
7/14/2021,2641.649902,2426.41405032292
7/15/2021,2625.330078,2439.2435201344
7/16/2021,2636.909912,2449.1400300416
7/19/2021,2585.080078,2455.43831678653
7/20/2021,2622.030029,2452.196023221
7/21/2021,2652.01001,2448.98815563287
7/22/2021,2666.570068,2448.45317761134
7/23/2021,2756.320068,2460.47142802338
7/26/2021,2792.889893,2482.17021326413
7/27/2021,2735.929932,2513.43408544331
7/28/2021,2727.629883,2542.49419493423
7/29/2021,2730.810059,2552.87892021571
7/30/2021,2704.419922,2550.244874488
8/2/2021,2719.790039,2546.82444941235
8/3/2021,2725.600098,2542.1415162167
8/4/2021,2720.570068,2540.15998029774
8/5/2021,2738.800049,2543.41636100656
8/6/2021,2740.719971,2545.83168091181
8/9/2021,2760.040039,2548.50440376666
8/10/2021,2761.929932,2553.63495802426
8/11/2021,2753.790039,2559.59173573924
8/12/2021,2767.790039,2566.10349688634
8/13/2021,2768.120117,2569.46440586549
8/16/2021,2778.320068,2571.56264001289
8/17/2021,2746.01001,2573.1952482288
8/18/2021,2731.399902,2572.10228596356
8/19/2021,2738.27002,2566.79468382223
8/20/2021,2768.73999,2558.95939805284
8/23/2021,2821.98999,2556.14813772965
8/24/2021,2847.969971,2565.03045667581
8/25/2021,2859,2586.28912288358
8/26/2021,2842.459961,2608.88323360412
8/27/2021,2891.01001,2622.51091929815
8/30/2021,2909.389893,2632.6150686961
8/31/2021,2909.23999,2645.09286006058
9/1/2021,2916.840088,2663.25268816793
9/2/2021,2884.379883,2677.77019785383
9/3/2021,2895.5,2683.24584544411
9/7/2021,2910.379883,2684.37681798948
9/8/2021,2897.669922,2683.69163267676
9/9/2021,2898.27002,2686.43220721586
9/10/2021,2838.419922,2689.66983285225
9/13/2021,2869.300049,2685.47144737227
9/14/2021,2868.120117,2679.29335980264
9/15/2021,2904.120117,2672.87904167629
9/16/2021,2887.469971,2675.27802382956
9/17/2021,2829.27002,2677.987756694
9/20/2021,2780.340088,2674.60684230426
9/21/2021,2792.929932,2657.07751805401
9/22/2021,2818.77002,2634.92711066918
9/23/2021,2836.530029,2622.96737608311
9/24/2021,2852.659912,2629.61100622835
9/27/2021,2830.02002,2635.32021698728
9/28/2021,2723.679932,2638.1006356358
9/29/2021,2690.419922,2627.64147355575
9/30/2021,2665.310059,2605.1808989509
10/1/2021,2729.25,2574.97998092108
10/4/2021,2675.300049,2560.38461684563
10/5/2021,2723.540039,2550.25771129313
10/6/2021,2747.080078,2549.00912360467
10/7/2021,2783.709961,2544.56483828619
10/8/2021,2801.120117,2554.19794362062
10/11/2021,2776.949951,2566.70866055669
10/12/2021,2734.26001,2580.24732217359
10/13/2021,2758,2579.27672633646
10/14/2021,2828.23999,2571.36091878944
10/15/2021,2833.5,2570.68023469411
10/18/2021,2859.209961,2584.30150198557
10/19/2021,2876.439941,2603.62197733066
10/20/2021,2848.300049,2616.33341521966
10/21/2021,2855.610107,2625.95401717247
10/22/2021,2772.5,2631.8133518667
10/25/2021,2775.459961,2623.16409595391
10/26/2021,2793.439941,2607.51086243763
10/27/2021,2928.550049,2592.21722617671
10/28/2021,2922.580078,2603.93139434779
10/29/2021,2965.409912,2631.69998787335
11/1/2021,2875.47998,2663.80967214111
11/2/2021,2917.26001,2676.43308622351
11/3/2021,2935.800049,2678.97652411242
11/4/2021,2973.659912,2679.17007645988
11/5/2021,2984.820068,2693.02465685234
11/8/2021,2987.030029,2711.36044921701
11/9/2021,2984.969971,2729.11033311902
11/10/2021,2932.52002,2738.2695602901
11/11/2021,2934.959961,2736.6365352948
11/12/2021,2992.909912,2729.39432659352
11/15/2021,2987.76001,2726.46386736557
11/16/2021,2981.52002,2736.18566335362
11/17/2021,2981.23999,2746.83212609032
11/18/2021,3014.179932,2749.85252631005
11/19/2021,2999.050049,2751.95392798079
11/22/2021,2941.570068,2756.62802545343
11/23/2021,2935.139893,2755.96042823086
11/24/2021,2934.350098,2743.47071697591
11/26/2021,2856.120117,2727.21840476833
11/29/2021,2922.280029,2713.13417893346
11/30/2021,2849.040039,2703.87859236804
12/1/2021,2832.360107,2691.60393927693
12/2/2021,2875.530029,2687.84558947406
12/3/2021,2850.409912,2675.05346309568
12/6/2021,2875.929932,2669.94708204254
12/7/2021,2960.72998,2668.17060158213
12/8/2021,2974.409912,2675.01186851283
12/9/2021,2962.120117,2691.60794035905
12/10/2021,2973.5,2712.31820824902
12/13/2021,2934.090088,2719.65869352981
12/14/2021,2899.409912,2719.81706969699
12/15/2021,2947.370117,2712.40823259667
12/16/2021,2896.77002,2699.94319468144
12/17/2021,2856.060059,2691.46740234965
12/20/2021,2848.030029,2687.39079980664
12/21/2021,2884.409912,2669.25589510665
12/22/2021,2938.97998,2650.60168329009
12/23/2021,2942.850098,2652.54520892893
12/27/2021,2961.280029,2668.97548593488
12/28/2021,2928.959961,2684.41624531952
12/29/2021,2930.090088,2692.0348891634
12/30/2021,2920.050049,2692.2637844029
12/31/2021,2893.590088,2687.84658974459
1/3/2022,2901.48999,2682.91225522252
1/4/2022,2888.330078,2677.52688204753
1/5/2022,2753.070068,2671.11873225611
1/6/2022,2751.02002,2660.23570553917
1/7/2022,2740.090088,2638.75314544455
1/10/2022,2771.47998,2605.9656111813
1/11/2022,2800.350098,2587.57897173138
1/12/2022,2832.959961,2581.28226874813
1/13/2022,2782.620117,2586.7694194495
1/14/2022,2795.72998,2597.42571817974
1/18/2022,2725.810059,2598.95321463418
1/19/2022,2713.040039,2582.47750867501
1/20/2022,2670.129883,2565.34695894252
1/21/2022,2601.840088,2547.56431618067
1/24/2022,2607.439941,2532.41088450564
1/25/2022,2534.709961,2504.07405396344
1/26/2022,2584.800049,2468.80518193998
1/27/2022,2582.419922,2446.25058190536
