Date,Adj Close,Predictions
2013-05-24,20.398258209228516,21.239292
2013-05-28,20.71658706665039,21.284014
2013-05-29,20.926013946533203,21.314678
2013-05-30,21.62968635559082,21.346754
2013-05-31,21.696706771850586,21.417858
2013-06-03,21.48728370666504,21.517931
2013-06-04,21.336490631103516,21.622715
2013-06-05,20.9679012298584,21.716253
2013-06-06,21.28623390197754,21.775854
2013-06-07,22.61819076538086,21.824293
2013-06-10,22.74384117126465,21.935707
2013-06-11,21.85587501525879,22.094772
2013-06-12,21.420259475708008,22.231129
2013-06-13,22.090438842773438,22.318052
2013-06-14,21.63806915283203,22.400343
2013-06-17,21.95639419555664,22.450512
2013-06-18,22.048553466796875,22.49263
2013-06-19,21.872631072998047,22.532438
2013-06-20,21.06842613220215,22.559227
2013-06-21,20.867380142211914,22.531345
2013-06-24,20.440143585205078,22.454094
2013-06-25,20.9679012298584,22.322552
2013-06-26,20.84224510192871,22.188557
2013-06-27,20.976282119750977,22.055023
2013-06-28,20.465280532836914,21.937618
2013-07-01,20.59930992126465,21.81055
2013-07-02,20.473655700683594,21.69102
2013-07-03,20.138568878173828,21.57627
2013-07-05,20.582555770874023,21.452772
2013-07-08,20.84224510192871,21.353579
2013-07-09,21.311363220214844,21.291752
2013-07-10,21.22759246826172,21.286335
2013-07-11,21.403512954711914,21.317268
2013-07-12,21.889385223388672,21.38147
2013-07-15,22.358501434326172,21.492025
2013-07-16,22.09881019592285,21.654762
2013-07-17,22.232845306396484,21.831087
2013-07-18,23.20458984375,22.013657
2013-07-19,23.120817184448242,22.243124
2013-07-22,23.129196166992188,22.489437
2013-07-23,23.29673957824707,22.734715
2013-07-24,23.229717254638672,22.973791
2013-07-25,23.25485610961914,23.19079
2013-07-26,23.20458984375,23.381403
2013-07-29,22.919254302978516,23.540375
2013-07-30,22.717838287353516,23.652008
2013-07-31,22.8353271484375,23.713125
2013-08-01,23.431177139282227,23.74166
2013-08-02,23.372438430786133,23.779205
2013-08-05,23.372438430786133,23.819311
2013-08-06,22.919254302978516,23.860306
2013-08-07,22.717838287353516,23.87496
2013-08-08,22.591957092285156,23.858974
2013-08-09,22.457677841186523,23.814556
2013-08-12,22.34018325805664,23.745106
2013-08-13,22.625524520874023,23.655231
2013-08-14,22.48285484313965,23.572216
2013-08-15,22.121992111206055,23.491547
2013-08-16,22.21430206298828,23.397429
2013-08-19,21.660411834716797,23.304146
2013-08-20,22.080032348632812,23.186024
2013-08-21,21.828262329101562,23.079512
2013-08-22,22.004493713378906,22.973421
2013-08-23,22.088424682617188,22.883394
2013-08-26,22.13877296447754,22.81471
2013-08-27,21.358293533325195,22.767889
2013-08-28,21.467391967773438,22.695784
2013-08-29,21.744340896606445,22.614634
2013-08-30,21.618453979492188,22.546614
2013-09-03,22.046451568603516,22.484627
2013-09-04,22.247873306274414,22.454037
2013-09-05,22.36536407470703,22.459082
2013-09-06,22.49964141845703,22.495827
2013-09-09,23.028356552124023,22.56037
2013-09-10,23.531890869140625,22.669847
2013-09-11,23.708126068115234,22.832928
2013-09-12,23.51510238647461,23.034964
2013-09-13,23.607418060302734,23.242525
2013-09-16,24.110950469970703,23.446644
2013-09-17,24.34593963623047,23.663668
2013-09-18,24.354331970214844,23.890886
2013-09-19,24.001855850219727,24.11322
2013-09-20,23.65776824951172,24.300259
2013-09-23,22.843717575073242,24.432259
2013-09-24,22.88568687438965,24.472279
2013-09-25,22.843717575073242,24.446445
2013-09-26,22.784975051879883,24.37373
2013-09-27,22.72623062133789,24.269678
2013-09-30,22.61713409423828,24.147282
2013-10-01,22.776582717895508,24.014061
2013-10-02,22.75979995727539,23.890007
2013-10-03,22.53321075439453,23.779675
2013-10-04,22.650699615478516,23.672892
2013-10-07,22.524816513061523,23.581062
2013-10-08,22.281436920166016,23.497875
2013-10-09,22.466062545776367,23.41169
2013-10-10,23.196199417114258,23.337431
2013-10-11,23.45635414123535,23.316298
2013-10-14,23.64937400817871,23.349277
2013-10-15,23.489927291870117,23.429724
2013-10-16,24.02703285217285,23.530558
2013-10-17,24.278797149658203,23.668827
2013-10-18,24.916610717773438,23.839481
2013-10-21,24.69841194152832,24.058634
2013-10-22,24.72359275817871,24.288214
2013-10-23,24.404678344726562,24.513046
2013-10-24,24.66484260559082,24.70333
2013-10-25,24.530567169189453,24.871853
2013-10-28,24.312368392944336,25.00819
2013-10-29,24.682262420654297,25.102367
2013-10-30,24.47209930419922,25.18195
2013-10-31,24.152639389038086,25.235945
2013-11-01,24.547760009765625,25.251616
2013-11-04,24.66545295715332,25.261366
2013-11-05,24.371217727661133,25.273638
2013-11-06,24.48891258239746,25.272005
2013-11-07,24.144235610961914,25.267273
2013-11-08,24.74952507019043,25.241734
2013-11-11,25.295957565307617,25.236263
2013-11-12,25.018535614013672,25.276285
2013-11-13,25.262331008911133,25.33214
2013-11-14,25.50613021850586,25.409416
2013-11-15,25.472505569458008,25.510765
2013-11-18,25.497724533081055,25.62166
2013-11-19,25.50613021850586,25.734022
2013-11-20,25.447284698486328,25.841106
2013-11-21,25.9685001373291,25.935026
2013-11-22,26.346805572509766,26.043268
2013-11-25,26.514936447143555,26.176954
2013-11-26,26.388835906982422,26.331264
2013-11-27,26.40565299987793,26.484781
2013-11-29,26.31317710876465,26.63008
2013-12-02,26.42245864868164,26.75582
2013-12-03,26.035757064819336,26.866604
2013-12-04,26.17026138305664,26.938818
2013-12-05,25.396841049194336,26.9871
2013-12-06,25.607004165649414,26.972883
2013-12-09,25.548160552978516,26.9269
2013-12-10,25.86761474609375,26.85806
2013-12-11,25.321176528930664,26.795492
2013-12-12,25.623823165893555,26.711906
2013-12-13,26.13663673400879,26.634912
2013-12-16,25.993717193603516,26.595812
2013-12-17,25.657447814941406,26.57903
2013-12-18,26.582199096679688,26.56033
2013-12-19,25.943286895751953,26.59185
2013-12-20,26.00212860107422,26.622244
2013-12-23,26.15345001220703,26.652573
2013-12-24,26.069381713867188,26.689236
2013-12-26,26.145038604736328,26.72338
2013-12-27,26.11141586303711,26.75748
2013-12-30,25.93487548828125,26.7879
2013-12-31,26.363616943359375,26.804152
2014-01-02,26.08619499206543,26.83299
2014-01-03,26.489721298217773,26.854172
2014-01-06,26.582199096679688,26.891201
2014-01-07,26.49812889099121,26.942877
2014-01-08,26.531749725341797,26.997871
2014-01-09,26.523345947265625,27.053823
2014-01-10,26.31317710876465,27.106567
2014-01-13,25.95168685913086,27.142115
2014-01-14,26.145038604736328,27.143137
2014-01-15,27.08660316467285,27.129889
2014-01-16,26.901649475097656,27.159971
2014-01-17,28.07860565185547,27.21004
2014-01-21,27.431276321411133,27.337784
2014-01-22,27.14544677734375,27.478085
2014-01-23,26.46449851989746,27.603323
2014-01-24,25.598600387573242,27.671444
2014-01-27,25.195077896118164,27.645687
2014-01-28,25.329587936401367,27.5307
2014-01-29,25.211692810058594,27.366468
2014-01-30,25.24537467956543,27.1712
2014-01-31,24.849605560302734,26.967964
2014-02-03,24.3780460357666,26.749834
2014-02-04,24.436988830566406,26.50835
2014-02-05,24.571720123291016,26.266459
2014-02-06,25.00117301940918,26.045835
2014-02-07,25.00117301940918,25.876965
2014-02-10,25.009593963623047,25.7548
2014-02-11,25.48957633972168,25.673103
2014-02-12,25.39695167541504,25.650627
2014-02-13,25.186429977416992,25.665861
2014-02-14,25.00117301940918,25.694672
2014-02-18,24.891704559326172,25.719572
2014-02-19,24.386463165283203,25.73322
2014-02-20,24.698026657104492,25.709063
2014-02-21,24.942232131958008,25.675755
2014-02-24,25.52326202392578,25.651539
2014-02-25,25.018016815185547,25.668102
2014-02-26,25.211692810058594,25.685654
2014-02-27,25.565364837646484,25.713446
2014-02-28,25.935876846313477,25.766575
2014-03-03,25.481159210205078,25.855755
2014-03-04,26.188495635986328,25.940104
2014-03-05,26.921106338500977,26.055449
2014-03-06,26.811634063720703,26.22638
2014-03-07,27.123201370239258,26.421999
2014-03-10,27.055835723876953,26.641142
2014-03-11,26.693744659423828,26.860504
2014-03-12,26.47480583190918,27.047136
2014-03-13,26.47480583190918,27.187187
2014-03-14,26.188495635986328,27.285612
2014-03-17,26.41585922241211,27.333235
2014-03-18,26.651641845703125,27.355003
2014-03-19,26.786375045776367,27.371284
2014-03-20,27.61160659790039,27.391773
2014-03-21,27.451608657836914,27.461155
2014-03-24,27.31688117980957,27.553925
2014-03-25,26.601116180419922,27.650764
2014-03-26,26.289548873901367,27.704683
2014-03-27,26.02008819580078,27.706753
2014-03-28,26.02850341796875,27.655802
2014-03-31,26.24744415283203,27.570354
2014-04-01,26.281129837036133,27.477983
2014-04-02,26.449539184570312,27.388916
2014-04-03,26.062192916870117,27.317371
2014-04-04,25.57379150390625,27.241796
2014-04-07,24.8580265045166,27.1403
2014-04-08,24.866443634033203,26.985764
2014-04-09,25.447473526000977,26.801334
2014-04-10,24.630666732788086,26.638498
2014-04-11,23.97384262084961,26.455904
2014-04-14,24.470666885375977,26.233046
2014-04-15,24.883285522460938,26.020565
2014-04-16,25.169588088989258,25.851112
2014-04-17,25.902198791503906,25.738516
2014-04-21,26.08745574951172,25.71348
2014-04-22,26.272708892822266,25.762987
2014-04-23,26.137975692749023,25.87242
2014-04-24,26.053775787353516,26.009619
2014-04-25,25.750621795654297,26.152622
2014-04-28,25.336652755737305,26.273396
2014-04-29,25.784421920776367,26.347073
2014-04-30,26.130800247192383,26.407177
2014-05-01,26.37579917907715,26.473785
2014-05-02,25.92803955078125,26.555855
2014-05-05,25.404233932495117,26.620586
2014-05-06,24.888885498046875,26.639805
2014-05-07,25.09164810180664,26.596405
2014-05-08,25.08319854736328,26.521503
2014-05-09,25.07475471496582,26.428675
2014-05-12,25.623899459838867,26.328827
2014-05-13,25.623899459838867,26.261038
2014-05-14,25.55630874633789,26.221071
2014-05-15,25.150787353515625,26.19983
2014-05-16,25.463375091552734,26.170424
2014-05-19,25.48027229309082,26.153164
2014-05-20,25.100099563598633,26.14611
2014-05-21,25.353548049926758,26.125387
2014-05-22,25.674585342407227,26.109888
2014-05-23,25.759071350097656,26.116919
2014-05-27,26.291316986083984,26.144056
2014-05-28,26.130800247192383,26.213781
2014-05-29,26.299768447875977,26.301764
2014-05-30,26.071657180786133,26.406813
2014-06-02,26.105451583862305,26.50491
2014-06-03,26.063209533691406,26.59393
2014-06-04,26.358905792236328,26.668468
2014-06-05,26.722183227539062,26.744812
2014-06-06,26.992536544799805,26.838575
2014-06-09,27.01787567138672,26.955198
2014-06-10,27.102357864379883,27.083393
2014-06-11,26.772876739501953,27.217363
2014-06-12,26.806665420532227,27.329786
2014-06-13,26.68839454650879,27.421892
2014-06-16,26.78977394104004,27.487534
2014-06-17,27.45719337463379,27.536089
2014-06-18,27.592363357543945,27.60734
2014-06-19,27.490983963012695,27.69938
2014-06-20,27.279775619506836,27.796457
2014-06-23,27.474090576171875,27.879862
2014-06-24,27.060117721557617,27.959305
2014-06-25,27.229089736938477,28.008554
2014-06-26,26.94184112548828,28.042505
2014-06-27,26.654600143432617,28.047792
2014-06-30,27.313575744628906,28.016426
2014-07-01,27.305118560791016,27.997871
2014-07-02,27.448741912841797,27.989838
2014-07-03,27.558570861816406,27.998384
2014-07-07,27.3642578125,28.025034
2014-07-08,26.823566436767578,28.052368
2014-07-09,27.043222427368164,28.048094
2014-07-10,26.764427185058594,28.033195
2014-07-11,26.536317825317383,27.995592
2014-07-14,26.874250411987305,27.931389
2014-07-15,27.034774780273438,27.870537
2014-07-16,27.45719337463379,27.82511
2014-07-17,27.288225173950195,27.817379
2014-07-18,27.57546043395996,27.828255
2014-07-21,27.499435424804688,27.867695
2014-07-22,27.80356788635254,27.920746
2014-07-23,28.17530059814453,27.996881
2014-07-24,28.21755027770996,28.10563
2014-07-25,28.08237075805664,28.233614
2014-07-28,27.938749313354492,28.36039
2014-07-29,27.667583465576172,28.4705
2014-07-30,28.252283096313477,28.546913
2014-07-31,27.404888153076172,28.62746
2014-08-01,26.777814865112305,28.659393
2014-08-04,26.97270965576172,28.619816
2014-08-05,26.616798400878906,28.542072
2014-08-06,26.74391746520996,28.422464
2014-08-07,26.574438095092773,28.287493
2014-08-08,27.07440757751465,28.140985
2014-08-11,27.184560775756836,28.023003
2014-08-12,27.125240325927734,27.93906
2014-08-13,27.133716583251953,27.881733
2014-08-14,27.260826110839844,27.8466
2014-08-15,27.303199768066406,27.83587
2014-08-18,27.633686065673828,27.844944
2014-08-19,27.565895080566406,27.885342
2014-08-20,27.574365615844727,27.94156
2014-08-21,27.989585876464844,28.006155
2014-08-22,28.362449645996094,28.095451
2014-08-25,28.981046676635742,28.218004
2014-08-26,29.150529861450195,28.392183
2014-08-27,28.921733856201172,28.602943
2014-08-28,28.86241340637207,28.815016
2014-08-29,29.074262619018555,29.011705
2014-09-02,29.27764320373535,29.19758
2014-09-03,29.286113739013672,29.376322
2014-09-04,29.404739379882812,29.540808
2014-09-05,29.34543228149414,29.692858
2014-09-08,29.54032325744629,29.824448
2014-09-09,28.735307693481445,29.94528
2014-09-10,29.091211318969727,30.00713
2014-09-11,29.430177688598633,30.04338
2014-09-12,29.66744613647461,30.07917
2014-09-15,29.836929321289062,30.12642
2014-09-16,29.75218391418457,30.18979
2014-09-17,30.133508682250977,30.257267
2014-09-18,30.616527557373047,30.345095
2014-09-19,30.302993774414062,30.469826
2014-09-22,29.811494827270508,30.596369
2014-09-23,29.67591094970703,30.689436
2014-09-24,29.64202117919922,30.744833
2014-09-25,28.997997283935547,30.767845
2014-09-26,29.36237907409668,30.730616
2014-09-29,29.23526382446289,30.673248
2014-09-30,29.29458999633789,30.598385
2014-10-01,28.777673721313477,30.519707
2014-10-02,29.048845291137695,30.414427
2014-10-03,29.701326370239258,30.311623
2014-10-06,29.650497436523438,30.253403
2014-10-07,28.828519821166992,30.228138
2014-10-08,29.23526382446289,30.182085
2014-10-09,28.2183895111084,30.14549
2014-10-10,27.9133243560791,30.060081
2014-10-13,27.83705711364746,29.926973
2014-10-14,27.972644805908203,29.762661
2014-10-15,27.633686065673828,29.593153
2014-10-16,27.565895080566406,29.411192
2014-10-17,28.15060043334961,29.227345
2014-10-20,28.235328674316406,29.085321
2014-10-21,28.86241340637207,28.986532
2014-10-22,28.328550338745117,28.958967
2014-10-23,28.777673721313477,28.954384
2014-10-24,29.082738876342773,28.990486
2014-10-27,28.777673721313477,29.069548
2014-10-28,29.11663246154785,29.15703
2014-10-29,29.22711944580078,29.263391
2014-10-30,29.337602615356445,29.382854
2014-10-31,29.70305061340332,29.510725
2014-11-03,29.49907684326172,29.657194
2014-11-04,29.456586837768555,29.79719
2014-11-05,29.660551071166992,29.922243
2014-11-06,30.009000778198242,30.040806
2014-11-07,30.306455612182617,30.167465
2014-11-10,30.493432998657227,30.310314
2014-11-11,30.416940689086914,30.467447
2014-11-12,30.56991195678711,30.622004
2014-11-13,30.459430694580078,30.774313
2014-11-14,30.331947326660156,30.910503
2014-11-17,30.255464553833008,31.020477
2014-11-18,30.14497947692871,31.100996
2014-11-19,30.15348243713379,31.149702
2014-11-20,30.076984405517578,31.174374
2014-11-21,30.195974349975586,31.17627
2014-11-24,30.272457122802734,31.169474
2014-11-25,30.000505447387695,31.161926
2014-11-26,29.84752655029297,31.139748
2014-11-28,29.898508071899414,31.099903
2014-12-01,29.830516815185547,31.052744
2014-12-02,30.39995002746582,30.9997
2014-12-03,31.03734016418457,30.977392
2014-12-04,31.266813278198242,31.014688
2014-12-05,31.649250030517578,31.105371
2014-12-08,32.2951545715332,31.250853
2014-12-09,32.380149841308594,31.462889
2014-12-10,31.776731491088867,31.714352
2014-12-11,31.78523826599121,31.945131
2014-12-12,30.807884216308594,32.147045
2014-12-15,30.535917282104492,32.260925
2014-12-16,30.187471389770508,32.28982
2014-12-17,31.2158203125,32.23677
2014-12-18,32.380149841308594,32.18716
2014-12-19,32.72858428955078,32.210358
2014-12-22,32.779579162597656,32.306282
2014-12-23,33.10253143310547,32.452835
2014-12-24,32.983551025390625,32.645176
2014-12-26,32.90705490112305,32.851658
2014-12-29,33.11103439331055,33.051228
2014-12-30,33.14503860473633,33.24488
2014-12-31,32.97505187988281,33.424683
2015-01-02,32.8985595703125,33.574745
2015-01-05,31.870223999023438,33.690845
2015-01-06,30.952362060546875,33.718506
2015-01-07,31.39429473876953,33.63008
2015-01-08,31.861722946166992,33.489197
2015-01-09,31.343297958374023,33.346523
2015-01-12,30.90986442565918,33.183502
2015-01-13,30.620908737182617,32.992405
2015-01-14,29.924013137817383,32.77653
2015-01-15,29.38858985900879,32.516315
2015-01-16,29.652050018310547,32.2095
2015-01-20,29.533071517944336,31.901604
2015-01-21,29.51607322692871,31.603968
2015-01-22,30.195974349975586,31.330143
2015-01-23,29.873023986816406,31.127117
2015-01-26,29.839027404785156,30.967876
2015-01-27,29.456586837768555,30.846138
2015-01-28,28.783245086669922,30.735659
2015-01-29,29.294633865356445,30.599936
2015-01-30,28.817338943481445,30.48125
2015-02-02,29.337257385253906,30.354012
2015-02-03,29.865703582763672,30.257097
2015-02-04,29.63558006286621,30.216795
2015-02-05,29.77194595336914,30.206207
2015-02-06,30.504947662353516,30.22454
2015-02-09,30.368576049804688,30.302885
2015-02-10,30.8203125,30.411446
2015-02-11,30.999298095703125,30.56013
2015-02-12,31.45103645324707,30.73846
2015-02-13,31.3487548828125,30.952518
2015-02-17,31.46808624267578,31.173645
2015-02-18,30.999298095703125,31.393454
2015-02-19,30.9652099609375,31.57266
2015-02-20,31.314664840698242,31.710438
2015-02-23,30.9140625,31.830956
2015-02-24,31.314664840698242,31.910511
2015-02-25,31.18682289123535,31.979176
2015-02-26,30.735074996948242,32.02993
2015-02-27,30.504947662353516,32.040596
2015-03-02,30.88849449157715,32.009438
2015-03-03,30.5305233001709,31.972187
2015-03-04,29.908315658569336,31.913721
2015-03-05,30.274818420410156,31.809032
2015-03-06,30.28334617614746,31.698072
2015-03-09,30.402660369873047,31.590113
2015-03-10,29.729324340820312,31.497375
2015-03-11,29.788982391357422,31.383514
2015-03-12,31.612985610961914,31.264042
2015-03-13,30.982250213623047,31.249224
2015-03-16,31.3061466217041,31.275887
2015-03-17,31.152725219726562,31.348452
2015-03-18,31.3061466217041,31.440454
2015-03-19,30.777690887451172,31.548586
2015-03-20,31.110103607177734,31.631115
2015-03-23,30.948165893554688,31.708572
2015-03-24,30.88849449157715,31.768732
2015-03-25,30.215164184570312,31.809488
2015-03-26,30.360055923461914,31.796677
2015-03-27,30.539045333862305,31.754442
2015-03-30,30.948165893554688,31.704151
2015-03-31,30.419713973999023,31.674597
2015-04-01,30.658369064331055,31.632917
2015-04-02,30.735074996948242,31.598444
2015-04-06,30.607236862182617,31.575579
2015-04-07,30.632802963256836,31.555405
2015-04-08,30.905542373657227,31.539307
2015-04-09,31.229429244995117,31.542448
2015-04-10,30.88849449157715,31.577072
2015-04-13,30.939638137817383,31.612988
2015-04-14,31.3998966217041,31.650393
2015-04-15,31.868684768676758,31.712322
2015-04-16,31.843111038208008,31.814207
2015-04-17,31.32318878173828,31.937468
2015-04-20,31.502180099487305,32.03997
2015-04-21,31.32318878173828,32.13103
2015-04-22,31.706737518310547,32.198277
2015-04-23,31.860158920288086,32.26594
2015-04-24,31.843111038208008,32.339348
2015-04-27,31.57889175415039,32.412952
2015-04-28,31.698701858520508,32.46699
2015-04-29,32.083805084228516,32.51118
2015-04-30,31.929773330688477,32.567413
2015-05-01,32.10092544555664,32.620968
2015-05-04,32.443241119384766,32.679214
2015-05-05,32.04957580566406,32.757244
2015-05-06,31.707258224487305,32.82282
2015-05-07,32.12660217285156,32.856506
2015-05-08,32.426124572753906,32.88854
2015-05-11,32.73421096801758,32.934902
2015-05-12,32.28065490722656,33.006775
2015-05-13,32.33198165893555,33.06773
2015-05-14,32.64006805419922,33.119892
2015-05-15,32.39189910888672,33.180202
2015-05-18,32.80267333984375,33.22894
2015-05-19,33.110774993896484,33.289814
2015-05-20,32.80267333984375,33.373425
2015-05-21,32.55448913574219,33.451572
2015-05-22,32.66574478149414,33.50737
2015-05-26,32.34054946899414,33.549744
2015-05-27,33.05086135864258,33.561943
2015-05-28,33.14501190185547,33.592247
2015-05-29,32.69142150878906,33.63954
2015-06-01,33.01662063598633,33.67115
2015-06-02,32.96527862548828,33.70794
2015-06-03,33.38461685180664,33.74365
2015-06-04,33.11931610107422,33.80017
2015-06-05,33.62424087524414,33.85374
2015-06-08,33.453086853027344,33.93055
2015-06-09,33.4873161315918,34.009808
2015-06-10,34.137718200683594,34.08812
2015-06-11,34.12059783935547,34.19793
2015-06-12,33.89809036254883,34.323166
2015-06-15,33.829627990722656,34.43961
2015-06-16,34.00933837890625,34.53911
2015-06-17,33.87242889404297,34.630775
2015-06-18,34.05214309692383,34.70366
2015-06-19,33.69270706176758,34.769447
2015-06-22,34.103477478027344,34.806755
2015-06-23,34.41156005859375,34.8451
2015-06-24,33.923770904541016,34.89979
2015-06-25,33.564334869384766,34.935814
2015-06-26,33.803951263427734,34.93662
2015-06-29,32.785560607910156,34.92575
2015-06-30,33.196353912353516,34.849625
2015-07-01,33.68415069580078,34.755016
2015-07-02,33.376068115234375,34.680397
2015-07-06,33.24768829345703,34.607643
2015-07-07,33.05086135864258,34.53379
2015-07-08,32.34054946899414,34.452408
2015-07-09,32.6058464050293,34.329903
2015-07-10,33.067970275878906,34.2001
2015-07-13,33.64992141723633,34.098164
2015-07-14,33.98367691040039,34.054985
2015-07-15,33.975120544433594,34.075756
2015-07-16,34.15483474731445,34.140316
2015-07-17,34.40301513671875,34.242043
2015-07-20,34.266090393066406,34.377167
2015-07-21,34.300315856933594,34.520027
2015-07-22,34.69398498535156,34.661026
2015-07-23,34.18050003051758,34.814228
2015-07-24,33.88953399658203,34.93835
2015-07-27,33.59001541137695,35.01782
2015-07-28,33.59001541137695,35.043755
2015-07-29,33.753238677978516,35.030365
2015-07-30,33.76182174682617,34.99971
2015-07-31,33.366641998291016,34.959885
2015-08-03,33.29792022705078,34.89463
2015-08-04,33.435367584228516,34.811485
2015-08-05,33.50410842895508,34.728733
2015-08-06,33.443973541259766,34.65523
2015-08-07,33.14328384399414,34.5892
2015-08-10,33.57282638549805,34.515472
2015-08-11,32.57628631591797,34.46474
2015-08-12,32.275611877441406,34.37645
2015-08-13,32.43024826049805,34.249733
2015-08-14,32.68796920776367,34.110992
2015-08-17,32.765281677246094,33.98587
2015-08-18,32.49039840698242,33.88252
2015-08-19,32.1639404296875,33.78545
2015-08-20,31.07289695739746,33.679695
2015-08-21,29.389114379882812,33.51225
2015-08-24,27.713903427124023,33.21496
2015-08-25,27.284366607666016,32.747066
2015-08-26,28.607349395751953,32.15955
2015-08-27,29.4664306640625,31.59495
2015-08-28,29.25165557861328,31.129543
2015-08-31,29.595294952392578,30.752134
2015-09-01,28.452707290649414,30.478783
2015-09-02,29.028297424316406,30.230509
2015-09-03,29.036888122558594,30.04417
2015-09-04,28.512849807739258,29.910475
2015-09-08,29.440654754638672,29.791035
2015-09-09,28.993932723999023,29.73845
2015-09-10,29.097021102905273,29.710606
2015-09-11,29.20011329650879,29.706703
2015-09-14,29.045480728149414,29.7246
2015-09-15,29.706979751586914,29.747396
2015-09-16,29.74132537841797,29.80877
2015-09-17,29.25165557861328,29.896023
2015-09-18,28.375394821166992,29.969194
2015-09-21,28.641712188720703,29.978361
2015-09-22,27.868539810180664,29.955109
2015-09-23,27.765451431274414,29.866993
2015-09-24,27.46477508544922,29.731516
2015-09-25,27.65377426147461,29.553965
2015-09-28,26.70878028869629,29.36802
2015-09-29,26.640056610107422,29.13494
2015-09-30,27.061006546020508,28.877844
2015-10-01,27.061006546020508,28.64172
2015-10-02,27.000873565673828,28.43467
2015-10-05,27.739681243896484,28.25689
2015-10-06,27.7998104095459,28.15086
2015-10-07,28.28948974609375,28.105371
2015-10-08,28.341033935546875,28.132927
2015-10-09,28.109085083007812,28.213764
2015-10-12,28.17780876159668,28.31364
2015-10-13,28.014585494995117,28.423214
2015-10-14,27.954442977905273,28.523302
2015-10-15,28.873666763305664,28.606054
2015-10-16,29.165754318237305,28.723253
2015-10-19,27.765451431274414,28.875036
2015-10-20,27.70531463623047,28.965103
2015-10-21,27.043825149536133,29.002356
2015-10-22,27.79122543334961,28.961697
2015-10-23,28.023170471191406,28.909706
2015-10-26,27.96303939819336,28.866747
2015-10-27,27.688129425048828,28.830782
2015-10-28,28.8619384765625,28.78771
2015-10-29,28.948253631591797,28.807405
2015-10-30,28.456287384033203,28.87618
2015-11-02,28.896472930908203,28.948795
2015-11-03,28.732479095458984,29.0442
2015-11-04,28.827415466308594,29.140207
2015-11-05,29.241708755493164,29.236235
2015-11-06,30.56224250793457,29.349503
2015-11-09,30.303314208984375,29.542795
2015-11-10,30.4155216217041,29.768198
2015-11-11,30.22564125061035,30.010405
2015-11-12,29.54378890991211,30.239729
2015-11-13,29.284862518310547,30.4077
2015-11-16,29.3884334564209,30.507027
2015-11-17,28.991413116455078,30.557648
2015-11-18,29.56105613708496,30.548914
2015-11-19,29.49200439453125,30.53146
2015-11-20,29.267601013183594,30.50625
2015-11-23,29.034564971923828,30.465641
2015-11-24,28.991413116455078,30.404127
2015-11-25,29.008676528930664,30.328985
2015-11-27,29.155399322509766,30.24965
2015-11-30,29.604209899902344,30.180733
2015-12-01,30.441415786743164,30.148338
2015-12-02,30.113433837890625,30.190458
2015-12-03,29.73367691040039,30.266024
2015-12-04,30.48456573486328,30.3392
2015-12-07,29.93218421936035,30.447866
2015-12-08,29.397066116333008,30.543913
2015-12-09,28.801532745361328,30.594772
2015-12-10,28.84467887878418,30.576199
2015-12-11,27.688135147094727,30.511618
2015-12-14,27.515518188476562,30.353064
2015-12-15,28.344087600708008,30.126997
2015-12-16,29.008676528930664,29.91301
2015-12-17,27.947065353393555,29.758501
2015-12-18,27.006290435791016,29.597897
2015-12-21,27.3428955078125,29.389698
2015-12-22,27.8089656829834,29.177254
2015-12-23,28.13694190979004,28.998756
2015-12-24,28.033370971679688,28.873474
2015-12-28,27.765811920166016,28.787685
2015-12-29,28.093788146972656,28.719404
2015-12-30,27.817594528198242,28.6849
2015-12-31,27.455095291137695,28.660341
2016-01-04,27.170278549194336,28.622936
2016-01-05,26.997657775878906,28.561916
2016-01-06,26.324440002441406,28.476784
2016-01-07,25.01253318786621,28.34133
2016-01-08,24.49467658996582,28.104218
2016-01-11,24.5637264251709,27.778574
2016-01-12,24.5637264251709,27.412018
2016-01-13,23.208662033081055,27.03818
2016-01-14,23.433069229125977,26.606596
2016-01-15,22.414613723754883,26.170774
2016-01-19,22.6649112701416,25.699902
2016-01-20,21.78455352783203,25.244064
2016-01-21,21.387531280517578,24.77645
2016-01-22,22.103899002075195,24.30361
2016-01-25,21.560148239135742,23.892252
2016-01-26,22.000328063964844,23.518032
2016-01-27,22.02637481689453,23.215075
2016-01-28,21.85273551940918,22.98021
2016-01-29,22.469158172607422,22.796888
2016-02-01,22.321563720703125,22.693293
2016-02-02,21.271034240722656,22.643122
2016-02-03,21.11475944519043,22.573715
2016-02-04,21.713825225830078,22.483124
2016-02-05,21.140804290771484,22.41409
2016-02-08,19.682222366333008,22.332697
2016-02-09,19.907955169677734,22.166082
2016-02-10,19.70826530456543,21.958323
2016-02-11,18.831377029418945,21.721663
2016-02-12,20.046863555908203,21.43027
2016-02-16,20.593835830688477,21.182419
2016-02-17,21.036619186401367,21.011372
2016-02-18,20.802200317382812,20.930775
2016-02-19,20.836931228637695,20.907078
2016-02-22,21.30576515197754,20.92593
2016-02-23,20.585155487060547,20.998055
2016-02-24,20.585155487060547,21.063913
2016-02-25,21.383899688720703,21.119795
2016-02-26,21.84404945373535,21.207909
2016-02-29,21.444673538208008,21.339207
2016-03-01,22.6514835357666,21.473278
2016-03-02,22.668846130371094,21.667147
2016-03-03,22.69489097595215,21.895153
2016-03-04,22.68621063232422,22.13577
2016-03-07,22.6514835357666,22.371088
2016-03-08,21.713825225830078,22.587357
2016-03-09,21.36654281616211,22.725225
2016-03-10,21.401268005371094,22.77964
2016-03-11,22.573345184326172,22.772913
2016-03-14,22.495201110839844,22.788473
2016-03-15,22.078468322753906,22.817873
2016-03-16,21.84404945373535,22.83393
2016-03-17,22.443115234375,22.826515
2016-03-18,22.81644058227539,22.836016
2016-03-21,22.521249771118164,22.878683
2016-03-22,22.434432983398438,22.926682
2016-03-23,21.939556121826172,22.970457
2016-03-24,21.644359588623047,22.981663
2016-03-28,21.462039947509766,22.951698
2016-03-29,21.51413345336914,22.883177
2016-03-30,21.76590919494629,22.79469
2016-03-31,21.713825225830078,22.711075
2016-04-01,22.165287017822266,22.633688
2016-04-04,21.739864349365234,22.590286
2016-04-05,21.166847229003906,22.550966
2016-04-06,21.201574325561523,22.485018
2016-04-07,20.593835830688477,22.404095
2016-04-08,20.61988067626953,22.283422
2016-04-11,20.932435989379883,22.142263
2016-04-12,21.340490341186523,22.011469
2016-04-13,22.469158172607422,21.91827
2016-04-14,22.720937728881836,21.920868
2016-04-15,22.364973068237305,22.006561
2016-04-18,22.338930130004883,22.127378
2016-04-19,22.972721099853516,22.263544
2016-04-20,23.797510147094727,22.436312
2016-04-21,23.667278289794922,22.670147
2016-04-22,24.04929542541504,22.927849
2016-04-25,23.90169906616211,23.208809
2016-04-26,23.91905975341797,23.482462
2016-04-27,24.032548904418945,23.73528
2016-04-28,23.77065658569336,23.964785
2016-04-29,23.62225341796875,24.150476
2016-05-02,23.79684829711914,24.286745
2016-05-03,23.47385025024414,24.390059
2016-05-04,22.941347122192383,24.446928
2016-05-05,22.845321655273438,24.438923
2016-05-06,22.915163040161133,24.38006
2016-05-09,22.78421401977539,24.293007
2016-05-10,23.24688148498535,24.184795
2016-05-11,23.01118278503418,24.094286
2016-05-12,22.8976993560791,24.00984
2016-05-13,22.600893020629883,23.92854
2016-05-16,22.8802433013916,23.837788
2016-05-17,22.836591720581055,23.759996
2016-05-18,23.779382705688477,23.693388
2016-05-19,23.22942352294922,23.690773
2016-05-20,23.369096755981445,23.70407
2016-05-23,23.42147445678711,23.735348
2016-05-24,23.92778968811035,23.779943
2016-05-25,24.250791549682617,23.858974
2016-05-26,23.936521530151367,23.97629
2016-05-27,24.032548904418945,24.096632
2016-05-31,23.892873764038086,24.216742
2016-06-01,23.997629165649414,24.321775
2016-06-02,23.814308166503906,24.415787
2016-06-03,23.168312072753906,24.486538
2016-06-06,23.438936233520508,24.500595
2016-06-07,23.150861740112305,24.488245
2016-06-08,23.168312072753906,24.442142
2016-06-09,22.766754150390625,24.376213
2016-06-10,22.29535675048828,24.2784
2016-06-13,22.05093765258789,24.137487
2016-06-14,21.474777221679688,23.960316
2016-06-15,21.57953643798828,23.735748
2016-06-16,21.88506317138672,23.495571
2016-06-17,22.09457778930664,23.275108
2016-06-20,22.609621047973633,23.093843
2016-06-21,22.87151527404785,22.979908
2016-06-22,23.037372589111328,22.935307
2016-06-23,23.823040008544922,22.95192
2016-06-24,21.404943466186523,23.05353
2016-06-27,20.610549926757812,23.076159
2016-06-28,21.483510971069336,22.993504
2016-06-29,22.024736404418945,22.885752
2016-06-30,22.679460525512695,22.796343
2016-07-01,22.62708282470703,22.763329
2016-07-05,21.82396125793457,22.770742
2016-07-06,21.954906463623047,22.76308
2016-07-07,22.426305770874023,22.75101
2016-07-08,23.01991844177246,22.7619
2016-07-11,23.098480224609375,22.821442
2016-07-12,23.892873764038086,22.91711
2016-07-13,23.709550857543945,23.077244
2016-07-14,24.442838668823242,23.264475
2016-07-15,24.451568603515625,23.500504
2016-07-18,24.62615394592285,23.75826
2016-07-19,24.60869789123535,24.025969
2016-07-20,25.12374496459961,24.28457
2016-07-21,25.202312469482422,24.549932
2016-07-22,25.245960235595703,24.809944
2016-07-25,25.429275512695312,25.054081
2016-07-26,25.516572952270508,25.28355
2016-07-27,25.507783889770508,25.495066
2016-07-28,25.367151260375977,25.681835
2016-07-29,25.252880096435547,25.83346
2016-08-01,25.05072021484375,25.94566
2016-08-02,24.611234664916992,26.012688
2016-08-03,24.98040199279785,26.020037
2016-08-04,24.857349395751953,26.00526
2016-08-05,25.498994827270508,25.969873
2016-08-08,25.595687866210938,25.95875
2016-08-09,25.789058685302734,25.971058
2016-08-10,25.586894989013672,26.01172
2016-08-11,25.824220657348633,26.060055
2016-08-12,25.639631271362305,26.123758
2016-08-15,26.070327758789062,26.184309
2016-08-16,26.58892250061035,26.262377
2016-08-17,26.69440269470215,26.377092
2016-08-18,26.852611541748047,26.518166
2016-08-19,26.852611541748047,26.679064
2016-08-22,26.896560668945312,26.844816
2016-08-23,27.00203514099121,27.00653
2016-08-24,27.16904067993164,27.162056
2016-08-25,27.221778869628906,27.31323
2016-08-26,27.388790130615234,27.456295
2016-08-29,27.608530044555664,27.594788
2016-08-30,28.294126510620117,27.734919
2016-08-31,28.179868698120117,27.906975
2016-09-01,28.048015594482422,28.086802
2016-09-02,28.03043556213379,28.254766
2016-09-06,27.907381057739258,28.40357
2016-09-07,27.854644775390625,28.52336
2016-09-08,28.162282943725586,28.612755
2016-09-09,27.76674461364746,28.692852
2016-09-12,28.33807945251465,28.740437
2016-09-13,27.65247917175293,28.79453
2016-09-14,27.74037742614746,28.81275
2016-09-15,28.08317756652832,28.80945
2016-09-16,27.76674461364746,28.810696
2016-09-19,27.775531768798828,28.797983
2016-09-20,27.863431930541992,28.77718
2016-09-21,28.056804656982422,28.756636
2016-09-22,28.33807945251465,28.748554
2016-09-23,28.048015594482422,28.765703
2016-09-26,27.274518966674805,28.784176
2016-09-27,27.555789947509766,28.758972
2016-09-28,27.924959182739258,28.719103
2016-09-29,27.28331184387207,28.691444
2016-09-30,28.179868698120117,28.638672
2016-10-03,28.08317756652832,28.621016
2016-10-04,28.162282943725586,28.624504
2016-10-05,28.61935043334961,28.64766
2016-10-06,28.46992301940918,28.70894
2016-10-07,28.39961051940918,28.78558
2016-10-10,28.61935043334961,28.864468
2016-10-11,28.285343170166016,28.952171
2016-10-12,28.048015594482422,29.02222
2016-10-13,27.889801025390625,29.062239
2016-10-14,28.18865203857422,29.069036
2016-10-17,27.942541122436523,29.068449
2016-10-18,28.408395767211914,29.049519
2016-10-19,28.944562911987305,29.045061
2016-10-20,28.918197631835938,29.081867
2016-10-21,29.392841339111328,29.145552
2016-10-24,29.340103149414062,29.251247
2016-10-25,29.313732147216797,29.378313
2016-10-26,29.524686813354492,29.511017
2016-10-27,29.9049129486084,29.651676
2016-10-28,29.63964080810547,29.811003
2016-10-31,29.68385124206543,29.95949
2016-11-01,29.4981632232666,30.094234
2016-11-02,29.109098434448242,30.20099
2016-11-03,29.011837005615234,30.259993
2016-11-04,28.985305786132812,30.276215
2016-11-07,30.06407356262207,30.259686
2016-11-08,30.152494430541992,30.281729
2016-11-09,32.29236602783203,30.336973
2016-11-10,33.618709564208984,30.533813
2016-11-11,34.03430938720703,30.895977
2016-11-14,34.794742584228516,31.38045
2016-11-15,35.3694953918457,31.966074
2016-11-16,34.653263092041016,32.621105
2016-11-17,35.342979431152344,33.246063
2016-11-18,35.749717712402344,33.850384
2016-11-21,35.86466598510742,34.427235
2016-11-22,35.846988677978516,34.95836
2016-11-23,36.28910446166992,35.426083
2016-11-25,36.342159271240234,35.8481
2016-11-28,35.75856018066406,36.218014
2016-11-29,35.9000358581543,36.49859
2016-11-30,36.57206344604492,36.7089
2016-12-01,37.279449462890625,36.897118
2016-12-02,36.9876594543457,37.10106
2016-12-05,37.217552185058594,37.289917
2016-12-06,37.58893585205078,37.471928
2016-12-07,37.703880310058594,37.660164
2016-12-08,38.53507995605469,37.84919
2016-12-09,38.66770935058594,38.07576
2016-12-12,38.00453186035156,38.32402
2016-12-13,37.633148193359375,38.535854
2016-12-14,37.89841842651367,38.688446
2016-12-15,38.03105545043945,38.80474
2016-12-16,37.765785217285156,38.896294
2016-12-19,37.87189865112305,38.950924
2016-12-20,38.464324951171875,38.983208
2016-12-21,38.34938049316406,39.032642
2016-12-22,37.83652877807617,39.0854
2016-12-23,38.07527160644531,39.109894
2016-12-27,38.128318786621094,39.126312
2016-12-28,37.68619918823242,39.138683
2016-12-29,37.2706184387207,39.12278
2016-12-30,37.35903549194336,39.064224
2017-01-03,38.06642150878906,38.98332
2017-01-04,38.570438385009766,38.932186
2017-01-05,38.21674346923828,38.93431
2017-01-06,38.77381896972656,38.95466
2017-01-09,37.765785217285156,39.018524
2017-01-10,38.07527160644531,39.0519
2017-01-11,38.61465072631836,39.078617
2017-01-12,38.57928466796875,39.12864
2017-01-13,38.73844528198242,39.190594
2017-01-17,37.2706184387207,39.266914
2017-01-18,37.89841842651367,39.265427
2017-01-19,37.535884857177734,39.243843
2017-01-20,37.659671783447266,39.18833
2017-01-23,37.102603912353516,39.11969
2017-01-24,37.783470153808594,39.014435
2017-01-25,38.78266143798828,38.9288
2017-01-26,38.92413330078125,38.918945
2017-01-27,38.773128509521484,38.972057
2017-01-30,38.30234146118164,39.05876
2017-01-31,37.74272918701172,39.13716
2017-02-01,37.92927551269531,39.17211
2017-02-02,37.422943115234375,39.183548
2017-02-03,39.465980529785156,39.148426
2017-02-06,39.64363479614258,39.198875
2017-02-07,39.85681915283203,39.31758
2017-02-08,39.00407028198242,39.491173
2017-02-09,39.83905792236328,39.645332
2017-02-10,39.705810546875,39.82346
2017-02-13,40.20323944091797,39.99948
2017-02-14,40.896095275878906,40.192116
2017-02-15,41.29582214355469,40.424988
2017-02-16,40.95828628540039,40.696194
2017-02-17,40.99380874633789,40.959812
2017-02-21,41.35800552368164,41.20442
2017-02-22,41.32246780395508,41.44215
2017-02-23,41.375770568847656,41.65865
2017-02-24,40.443077087402344,41.851578
2017-02-27,40.71843719482422,41.96382
2017-02-28,40.56743621826172,42.02847
2017-03-01,41.58007049560547,42.047462
2017-03-02,41.109283447265625,42.091488
2017-03-03,41.59782791137695,42.125736
2017-03-06,41.36687469482422,42.180004
2017-03-07,41.15370178222656,42.232613
2017-03-08,41.20699691772461,42.268936
2017-03-09,41.464595794677734,42.295055
2017-03-10,41.29582214355469,42.32714
2017-03-13,41.091522216796875,42.351704
2017-03-14,41.02933883666992,42.357994
2017-03-15,40.727333068847656,42.347336
2017-03-16,41.15370178222656,42.308044
2017-03-17,39.99005889892578,42.275597
2017-03-20,39.60810852050781,42.18324
2017-03-21,37.893741607666016,42.03344
2017-03-22,37.494014739990234,41.752808
2017-03-23,37.8315544128418,41.373325
2017-03-24,37.71607971191406,40.964787
2017-03-27,36.93440628051758,40.55453
2017-03-28,37.74272918701172,40.123463
2017-03-29,38.01810073852539,39.749573
2017-03-30,38.577701568603516,39.453594
2017-03-31,38.05363082885742,39.261864
2017-04-03,37.938148498535156,39.124523
2017-04-04,37.760494232177734,39.02601
2017-04-05,37.07653045654297,38.948677
2017-04-06,37.38741683959961,38.84997
2017-04-07,37.26306915283203,38.75793
2017-04-10,37.2275276184082,38.667343
2017-04-11,36.93440628051758,38.58113
2017-04-12,36.48137664794922,38.4859
2017-04-13,36.143836975097656,38.364258
2017-04-17,36.85445785522461,38.210827
2017-04-18,36.60573959350586,38.084133
2017-04-19,37.3430061340332,37.969532
2017-04-20,37.75161361694336,37.912422
2017-04-21,37.12982177734375,37.922775
2017-04-24,38.69318771362305,37.945244
2017-04-25,39.32386016845703,38.062965
2017-04-26,39.41267013549805,38.27654
2017-04-27,38.85054016113281,38.550827
2017-04-28,38.6988410949707,38.819405
2017-05-01,39.02900314331055,39.058598
2017-05-02,38.68100357055664,39.279892
2017-05-03,38.79698944091797,39.455696
2017-05-04,38.618534088134766,39.59544
2017-05-05,38.44008255004883,39.692333
2017-05-08,38.38654327392578,39.744183
2017-05-09,38.21700668334961,39.758724
2017-05-10,38.45792770385742,39.736988
2017-05-11,38.252689361572266,39.706078
2017-05-12,38.12778091430664,39.65941
2017-05-15,38.75238037109375,39.598118
2017-05-16,38.7077751159668,39.565563
2017-05-17,36.557342529296875,39.5533
2017-05-18,36.8607177734375,39.434162
2017-05-19,37.29794692993164,39.262787
2017-05-22,37.17302322387695,39.08853
2017-05-23,37.851173400878906,38.91567
2017-05-24,38.03854751586914,38.79325
2017-05-25,38.03854751586914,38.724777
2017-05-26,38.225929260253906,38.698807
2017-05-30,37.72624588012695,38.714817
2017-05-31,37.244407653808594,38.73084
2017-06-01,38.02070236206055,38.7172
2017-06-02,37.94039535522461,38.726643
2017-06-05,38.270545959472656,38.746655
2017-06-06,38.31515884399414,38.79158
2017-06-07,38.618534088134766,38.854935
2017-06-08,39.350215911865234,38.94454
2017-06-09,40.072975158691406,39.08886
2017-06-12,40.01945495605469,39.304535
2017-06-13,40.28712463378906,39.55558
2017-06-14,40.072975158691406,39.832317
2017-06-15,39.876678466796875,40.097992
2017-06-16,39.689292907714844,40.32881
2017-06-19,40.795745849609375,40.510216
2017-06-20,40.59943771362305,40.709167
2017-06-21,40.072975158691406,40.89842
2017-06-22,39.805294036865234,41.040962
2017-06-23,38.984378814697266,41.127502
2017-06-26,39.260990142822266,41.122604
2017-06-27,39.457298278808594,41.0696
2017-06-28,39.54652786254883,40.997772
2017-06-29,39.93021011352539,40.923
2017-06-30,39.76068878173828,40.872887
2017-07-03,40.69758987426758,40.83532
2017-07-05,41.1883544921875,40.862827
2017-07-06,41.16157913208008,40.962605
2017-07-07,41.0901985168457,41.1067
2017-07-10,41.03666305541992,41.269054
2017-07-11,40.58159255981445,41.430782
2017-07-12,40.11758804321289,41.555737
2017-07-13,40.61728286743164,41.619972
2017-07-14,40.331748962402344,41.665638
2017-07-17,40.447757720947266,41.679802
2017-07-18,40.278202056884766,41.67805
2017-07-19,41.59881591796875,41.65626
2017-07-20,41.50065231323242,41.697613
2017-07-21,41.57204055786133,41.776356
2017-07-24,41.679107666015625,41.88215
2017-07-25,42.48218536376953,42.00686
2017-07-26,42.12525177001953,42.182907
2017-07-27,42.24187088012695,42.36435
2017-07-28,41.85615158081055,42.545437
2017-07-31,42.07143783569336,42.69305
2017-08-01,42.34952163696289,42.82046
2017-08-02,42.45717239379883,42.942406
2017-08-03,42.394378662109375,43.05947
2017-08-04,43.12996292114258,43.163197
2017-08-07,43.336273193359375,43.29422
2017-08-08,42.99539566040039,43.448925
2017-08-09,42.744224548339844,43.592876
2017-08-10,41.5332145690918,43.706604
2017-08-11,40.95012664794922,43.72262
2017-08-14,41.72158432006836,43.635323
2017-08-15,41.64982604980469,43.523952
2017-08-16,41.273067474365234,43.39906
2017-08-17,40.44779586791992,43.25182
2017-08-18,40.716896057128906,43.051006
2017-08-21,40.079994201660156,42.83987
2017-08-22,40.87836837768555,42.597366
2017-08-23,41.084693908691406,42.392773
2017-08-24,41.264102935791016,42.23874
2017-08-25,41.21027374267578,42.140533
2017-08-28,40.797630310058594,42.083973
2017-08-29,40.6810188293457,42.036068
2017-08-30,40.959102630615234,41.989235
2017-08-31,40.81557846069336,41.961155
2017-09-01,41.434532165527344,41.93844
2017-09-05,40.268375396728516,41.955967
2017-09-06,40.429847717285156,41.93395
2017-09-07,39.532798767089844,41.894634
2017-09-08,39.47897720336914,41.792854
2017-09-11,40.51057815551758,41.649883
2017-09-12,41.03983688354492,41.544655
2017-09-13,41.461456298828125,41.503323
2017-09-14,41.64085388183594,41.534817
2017-09-15,41.802330017089844,41.626606
2017-09-18,42.448204040527344,41.764545
2017-09-19,42.762149810791016,41.96349
2017-09-20,42.959503173828125,42.210854
2017-09-21,43.291412353515625,42.488483
2017-09-22,43.25553512573242,42.78967
2017-09-25,42.824954986572266,43.08691
2017-09-26,42.57379150390625,43.33922
2017-09-27,43.12097930908203,43.530857
2017-09-28,43.192745208740234,43.69938
2017-09-29,43.21068572998047,43.846214
2017-10-02,43.88346862792969,43.971252
2017-10-03,44.206398010253906,44.113663
2017-10-04,43.964210510253906,44.279076
2017-10-05,44.5203742980957,44.4387
2017-10-06,44.636985778808594,44.61714
2017-10-09,44.296112060546875,44.805115
2017-10-10,44.39479064941406,44.96948
2017-10-11,44.116703033447266,45.113205
2017-10-12,43.58744430541992,45.21797
2017-10-13,43.327301025390625,45.25912
2017-10-16,43.90141296386719,45.238182
2017-10-17,44.06287384033203,45.20833
2017-10-18,44.98684310913086,45.183235
2017-10-19,44.663902282714844,45.21783
2017-10-20,45.46227264404297,45.274357
2017-10-23,45.39948272705078,45.39003
2017-10-24,45.81211853027344,45.53706
2017-10-25,45.32771301269531,45.721027
2017-10-26,45.54301071166992,45.891693
2017-10-27,45.89284896850586,46.054855
2017-10-30,45.48719024658203,46.222584
2017-10-31,45.07253646850586,46.360405
2017-11-01,44.73899459838867,46.445362
2017-11-02,45.45113754272461,46.468906
2017-11-03,45.09056854248047,46.48906
2017-11-06,45.198734283447266,46.48522
2017-11-07,44.52264404296875,46.472057
2017-11-08,44.20714569091797,46.414806
2017-11-09,44.008819580078125,46.312588
2017-11-10,43.954734802246094,46.173145
2017-11-13,43.837547302246094,46.01279
2017-11-14,43.612186431884766,45.84101
2017-11-15,43.359771728515625,45.65865
2017-11-16,43.81049728393555,45.46511
2017-11-17,43.90065383911133,45.30131
2017-11-20,44.27024459838867,45.172974
2017-11-21,44.513633728027344,45.09837
2017-11-22,44.25221252441406,45.07993
2017-11-24,44.22517776489258,45.08661
2017-11-27,44.17108917236328,45.108288
2017-11-28,45.4331169128418,45.135223
2017-11-29,46.262451171875,45.236294
2017-11-30,46.52387237548828,45.430676
2017-12-01,46.83035659790039,45.69505
2017-12-04,47.488426208496094,46.01034
2017-12-05,46.88445281982422,46.380585
2017-12-06,46.59598159790039,46.73181
2017-12-07,47.190940856933594,47.032078
2017-12-08,47.6777229309082,47.31193
2017-12-11,47.569557189941406,47.58904
2017-12-12,48.54311752319336,47.84251
2017-12-13,47.939144134521484,48.12144
2017-12-14,47.452362060546875,48.36758
2017-12-15,47.86702346801758,48.549294
2017-12-18,47.99323654174805,48.699615
2017-12-19,47.713775634765625,48.826084
2017-12-20,47.335174560546875,48.91335
2017-12-21,47.668704986572266,48.946754
2017-12-22,47.524478912353516,48.960457
2017-12-26,47.29911804199219,48.95169
2017-12-27,47.38926696777344,48.91565
2017-12-28,47.46137619018555,48.868366
2017-12-29,47.29911804199219,48.82047
2018-01-02,47.046714782714844,48.766018
2018-01-03,47.17291259765625,48.696217
2018-01-04,47.89406967163086,48.626953
2018-01-05,47.876041412353516,48.60377
2018-01-08,47.6777229309082,48.613293
2018-01-09,48.04731750488281,48.633984
2018-01-10,48.61524200439453,48.682507
2018-01-11,48.858619689941406,48.779934
2018-01-12,49.68796157836914,48.920235
2018-01-16,49.219207763671875,49.130074
2018-01-17,49.895294189453125,49.34862
2018-01-18,50.33700942993164,49.599514
2018-01-19,51.7973518371582,49.883068
2018-01-22,51.70721435546875,50.256805
2018-01-23,51.30155563354492,50.66647
2018-01-24,51.599037170410156,51.054504
2018-01-25,51.211421966552734,51.421246
2018-01-26,51.92355728149414,51.727898
2018-01-29,51.788333892822266,52.016224
2018-01-30,51.24510192871094,52.26628
2018-01-31,51.19983673095703,52.44442
2018-02-01,52.01468276977539,52.56034
2018-02-02,50.2310676574707,52.673668
2018-02-05,47.57827377319336,52.675423
2018-02-06,49.18987274169922,52.44701
2018-02-07,49.3890495300293,52.16537
2018-02-08,46.89018249511719,51.873432
2018-02-09,47.207061767578125,51.449284
2018-02-12,48.37501907348633,50.978622
2018-02-13,48.338802337646484,50.570183
2018-02-14,49.84174728393555,50.227974
2018-02-15,50.15864181518555,50.04074
2018-02-16,49.92323684692383,49.99148
2018-02-20,49.85080337524414,50.028492
2018-02-21,49.88702392578125,50.117958
2018-02-22,49.66972732543945,50.238705
2018-02-23,50.765254974365234,50.359756
2018-02-26,51.61631393432617,50.535904
2018-02-27,51.353759765625,50.788197
2018-02-28,50.719974517822266,51.06394
2018-03-01,49.33473587036133,51.30275
2018-03-02,49.56108474731445,51.421097
2018-03-05,50.2401237487793,51.460526
2018-03-06,51.20888900756836,51.481285
2018-03-07,51.498619079589844,51.544174
2018-03-08,51.571048736572266,51.65112
2018-03-09,53.1192626953125,51.78874
2018-03-12,53.3365592956543,52.03007
2018-03-13,52.53981399536133,52.342476
2018-03-14,51.598209381103516,52.640026
2018-03-15,51.806453704833984,52.854317
2018-03-16,52.06901168823242,53.00878
2018-03-19,51.56199264526367,53.126644
2018-03-20,52.03280258178711,53.18184
2018-03-21,51.70684814453125,53.218155
2018-03-22,49.47053909301758,53.222275
2018-03-23,47.1436882019043,53.074387
2018-03-26,49.16270446777344,52.694145
2018-03-27,48.121517181396484,52.292004
2018-03-28,47.90421676635742,51.83728
2018-03-29,48.85487747192383,51.3628
2018-04-02,47.73219299316406,50.959236
2018-04-03,48.139617919921875,50.56432
2018-04-04,48.592315673828125,50.223244
2018-04-05,49.66972732543945,49.96522
2018-04-06,48.02191925048828,49.842323
2018-04-09,48.302589416503906,49.725174
2018-04-10,49.017845153808594,49.635193
2018-04-11,47.750301361083984,49.60816
2018-04-12,48.75529098510742,49.551716
2018-04-13,47.967586517333984,49.535538
2018-04-16,48.34785842895508,49.501125
2018-04-17,48.202999114990234,49.478664
2018-04-18,48.22109603881836,49.456924
2018-04-19,49.52485656738281,49.43812
2018-04-20,49.30757141113281,49.497513
2018-04-23,48.565147399902344,49.595455
2018-04-24,48.04907989501953,49.672966
2018-04-25,47.11652755737305,49.700836
2018-04-26,47.26138687133789,49.637012
2018-04-27,47.17951583862305,49.520527
2018-04-30,46.96116638183594,49.369328
2018-05-01,47.1340217590332,49.190845
2018-05-02,47.033958435058594,49.014355
2018-05-03,46.469905853271484,48.84485
2018-05-04,46.761024475097656,48.65799
2018-05-07,47.66167449951172,48.486313
2018-05-08,48.56232833862305,48.387024
2018-05-09,49.25373458862305,48.397953
2018-05-10,50.072513580322266,48.524677
2018-05-11,50.21807098388672,48.77278
2018-05-14,50.236263275146484,49.099564
2018-05-15,49.899654388427734,49.461525
2018-05-16,50.00883483886719,49.80632
2018-05-17,49.9178466796875,50.123585
2018-05-18,49.053592681884766,50.39658
2018-05-21,49.45387649536133,50.571106
2018-05-22,49.92695236206055,50.690617
2018-05-23,49.44477844238281,50.79227
2018-05-24,49.12637710571289,50.84803
2018-05-25,48.22572708129883,50.852425
2018-05-29,45.450992584228516,50.768574
2018-05-30,46.369842529296875,50.46847
2018-05-31,45.614742279052734,50.088306
2018-06-01,46.58817672729492,49.63007
2018-06-04,46.89748764038086,49.20291
2018-06-05,46.196983337402344,48.841183
2018-06-06,47.224998474121094,48.507843
2018-06-07,47.43423843383789,48.27412
2018-06-08,47.224998474121094,48.13509
2018-06-11,47.10673141479492,48.05865
2018-06-12,46.68824768066406,48.022556
2018-06-13,46.9429817199707,47.990986
2018-06-14,46.67914581298828,47.977657
2018-06-15,46.54268264770508,47.961094
2018-06-18,46.18789291381836,47.934544
2018-06-19,45.41459274291992,47.881786
2018-06-20,45.38730239868164,47.769043
2018-06-21,45.29633331298828,47.619034
2018-06-22,44.47755813598633,47.446075
2018-06-25,43.604209899902344,47.220467
2018-06-26,43.476829528808594,46.921154
2018-06-27,42.930992126464844,46.580296
2018-06-28,43.93171310424805,46.19872
2018-06-29,43.122039794921875,45.86907
2018-07-02,43.41315841674805,45.548923
2018-07-03,42.776329040527344,45.271538
2018-07-05,42.48521041870117,45.003807
2018-07-06,42.84001159667969,44.741375
2018-07-09,44.0408821105957,44.51689
2018-07-10,43.75886154174805,44.400265
2018-07-11,43.44044876098633,44.349674
2018-07-12,43.68608856201172,44.329487
2018-07-13,43.740665435791016,44.3461
2018-07-16,44.48666000366211,44.388626
2018-07-17,44.74139404296875,44.489418
2018-07-18,45.99684143066406,44.63895
2018-07-19,45.35091781616211,44.88563
2018-07-20,45.73301696777344,45.14944
2018-07-23,46.16059112548828,45.431416
2018-07-24,46.37893295288086,45.733
2018-07-25,46.43352127075195,46.042847
2018-07-26,46.38803482055664,46.34332
2018-07-27,46.4426155090332,46.617218
2018-07-30,46.57988739013672,46.85941
2018-07-31,46.26874542236328,47.073303
2018-08-01,45.920997619628906,47.23728
2018-08-02,45.582401275634766,47.337116
2018-08-03,45.67390823364258,47.367397
2018-08-06,45.747127532958984,47.35295
2018-08-07,45.875244140625,47.312717
2018-08-08,45.86608123779297,47.26526
2018-08-09,45.243804931640625,47.21634
2018-08-10,44.28291702270508,47.134083
2018-08-13,43.33118438720703,46.9789
2018-08-14,43.79790115356445,46.725998
2018-08-15,43.42270278930664,46.44618
2018-08-16,44.20055389404297,46.141876
2018-08-17,44.26461410522461,45.884087
2018-08-20,44.19141387939453,45.67855
2018-08-21,44.42018508911133,45.518703
2018-08-22,44.47509765625,45.412804
2018-08-23,44.04498291015625,45.353493
2018-08-24,44.054134368896484,45.305115
2018-08-27,45.655601501464844,45.266693
2018-08-28,45.75627136230469,45.328587
2018-08-29,45.71051788330078,45.462402
2018-08-30,45.11568832397461,45.63705
2018-08-31,44.685577392578125,45.7946
2018-09-04,44.57575988769531,45.90544
2018-09-05,44.58491516113281,45.96943
2018-09-06,43.86196517944336,45.996574
2018-09-07,44.12735366821289,45.954742
2018-09-10,43.87111282348633,45.882706
2018-09-11,43.79790115356445,45.779366
2018-09-12,43.450157165527344,45.656883
2018-09-13,43.66978454589844,45.508656
2018-09-14,44.09990310668945,45.36418
2018-09-17,43.6331901550293,45.255787
2018-09-18,43.78874969482422,45.152935
2018-09-19,44.932655334472656,45.069195
2018-09-20,45.646461486816406,45.06905
2018-09-21,45.21634292602539,45.16852
2018-09-24,44.43849563598633,45.30758
2018-09-25,44.1822509765625,45.4211
2018-09-26,43.65148162841797,45.49388
2018-09-27,43.71554946899414,45.502243
2018-09-28,42.61739730834961,45.467495
2018-10-01,42.672298431396484,45.34167
2018-10-02,42.672298431396484,45.162605
2018-10-03,43.1115608215332,44.956776
2018-10-04,43.25798797607422,44.77051
2018-10-05,42.7821159362793,44.618294
2018-10-08,43.02919387817383,44.47243
2018-10-09,42.24219512939453,44.354164
2018-10-10,40.83289337158203,44.217186
2018-10-11,39.798805236816406,43.993248
2018-10-12,39.74390411376953,43.66086
2018-10-15,39.78050231933594,43.26702
2018-10-16,42.04085922241211,42.854702
2018-10-17,43.18476486206055,42.583496
2018-10-18,42.12322235107422,42.494366
2018-10-19,42.48012161254883,42.479656
2018-10-22,41.281307220458984,42.538803
2018-10-23,40.74139404296875,42.57534
2018-10-24,39.798805236816406,42.560757
2018-10-25,40.76883316040039,42.45456
2018-10-26,40.238067626953125,42.344234
2018-10-29,40.219764709472656,42.2068
2018-10-30,41.002967834472656,42.05791
2018-10-31,42.071807861328125,41.95504
2018-11-01,42.28373718261719,41.9527
2018-11-02,42.33901596069336,42.03427
2018-11-05,42.219234466552734,42.17345
2018-11-06,42.12709045410156,42.337486
2018-11-07,42.9471435546875,42.50319
2018-11-08,42.78129959106445,42.706017
2018-11-09,42.13630676269531,42.91318
2018-11-12,40.66204071044922,43.073875
2018-11-13,41.1688232421875,43.10801
2018-11-14,40.40403747558594,43.07932
2018-11-15,40.81867980957031,42.964115
2018-11-16,40.66204071044922,42.819508
2018-11-19,40.920047760009766,42.654503
2018-11-20,39.712974548339844,42.501328
2018-11-21,40.29347610473633,42.29706
2018-11-23,39.694557189941406,42.102177
2018-11-26,40.800254821777344,41.89092
2018-11-27,40.58832931518555,41.74424
2018-11-28,41.74931335449219,41.63955
2018-11-29,41.01218032836914,41.638058
2018-11-30,40.901607513427734,41.666557
2018-12-03,41.841453552246094,41.70695
2018-12-04,39.73140335083008,41.806133
2018-12-06,39.2614860534668,41.818825
2018-12-07,38.0728645324707,41.74248
2018-12-10,37.51081085205078,41.538067
2018-12-11,37.4278678894043,41.223457
2018-12-12,37.602943420410156,40.844246
2018-12-13,37.40944290161133,40.452774
2018-12-14,36.5248908996582,40.066277
2018-12-17,36.488033294677734,39.65687
2018-12-18,36.7552490234375,39.25295
2018-12-19,36.21160888671875,38.891083
2018-12-20,35.852256774902344,38.548824
2018-12-21,34.71891784667969,38.219418
2018-12-24,34.101566314697266,37.8531
2018-12-26,36.21160888671875,37.445023
2018-12-27,36.54331970214844,37.148724
2018-12-28,36.27610778808594,36.96721
2018-12-31,36.53410720825195,36.86394
2019-01-02,37.22517013549805,36.83535
2019-01-03,36.561744689941406,36.899235
2019-01-04,38.054439544677734,36.985645
2019-01-07,38.43220901489258,37.166164
2019-01-08,38.192649841308594,37.422516
2019-01-09,38.45986557006836,37.704426
2019-01-10,38.38615417480469,38.001785
2019-01-11,38.45986557006836,38.28818
2019-01-14,39.14170455932617,38.55326
2019-01-15,39.51027297973633,38.826897
2019-01-16,40.993751525878906,39.11138
2019-01-17,39.187774658203125,39.472736
2019-01-18,40.256614685058594,39.76603
2019-01-22,39.077213287353516,40.054424
2019-01-23,38.837646484375,40.25546
2019-01-24,38.74549865722656,40.36963
2019-01-25,39.602413177490234,40.41086
2019-01-28,39.2983512878418,40.448105
2019-01-29,39.15092849731445,40.464745
2019-01-30,39.707698822021484,40.459095
2019-01-31,39.25300216674805,40.4704
2019-02-01,38.80757522583008,40.46816
2019-02-04,39.40147399902344,40.431793
2019-02-05,39.3922004699707,40.40685
2019-02-06,39.32724380493164,40.390984
2019-02-07,38.492061614990234,40.378975
2019-02-08,37.870330810546875,40.32308
2019-02-11,37.31354522705078,40.20472
2019-02-12,38.18583679199219,40.01604
2019-02-13,38.22294998168945,39.837795
2019-02-14,37.786808013916016,39.680115
2019-02-15,38.965328216552734,39.522617
2019-02-19,39.123085021972656,39.44128
2019-02-20,39.364349365234375,39.428417
2019-02-21,38.93749237060547,39.47831
2019-02-22,38.77973937988281,39.5446
2019-02-25,39.15092468261719,39.608772
2019-02-26,39.35507583618164,39.687366
2019-02-27,39.494266510009766,39.782467
2019-02-28,38.9560432434082,39.89167
2019-03-01,39.43859100341797,39.973637
2019-03-04,38.974605560302734,40.059254
2019-03-05,38.88180923461914,40.114567
2019-03-06,38.621978759765625,40.141323
2019-03-07,38.20439910888672,40.130676
2019-03-08,38.38071823120117,40.071064
2019-03-11,38.83541488647461,39.99068
2019-03-12,39.00244140625,39.926964
2019-03-13,39.35507583618164,39.888664
2019-03-14,39.614906311035156,39.891537
2019-03-15,40.208805084228516,39.93878
2019-03-18,40.85837936401367,40.048176
2019-03-19,40.784149169921875,40.232033
2019-03-20,39.930416107177734,40.4538
2019-03-21,40.02320861816406,40.639942
2019-03-22,38.71478271484375,40.794155
2019-03-25,38.27863311767578,40.840717
2019-03-26,38.863250732421875,40.783333
2019-03-27,38.38998794555664,40.688984
2019-03-28,38.9096565246582,40.54853
2019-03-29,39.16020584106445,40.414616
2019-04-01,40.39440155029297,40.308453
2019-04-02,40.552154541015625,40.30028
2019-04-03,41.18316650390625,40.371346
2019-04-04,41.69355392456055,40.53085
2019-04-05,41.665706634521484,40.77194
2019-04-08,41.73994827270508,41.054356
2019-04-09,41.071815490722656,41.352818
2019-04-10,41.24812316894531,41.605633
2019-04-11,41.572914123535156,41.820385
2019-04-12,43.32677459716797,42.013317
2019-04-15,42.76071548461914,42.28069
2019-04-16,43.632999420166016,42.55341
2019-04-17,44.7836799621582,42.865616
2019-04-18,44.124820709228516,43.25352
2019-04-22,43.88355255126953,43.634926
2019-04-23,43.93922424316406,43.97622
2019-04-24,43.967071533203125,44.27188
2019-04-25,43.88355255126953,44.51929
2019-04-26,44.44033432006836,44.713917
2019-04-29,45.25275421142578,44.892754
2019-04-30,45.05664825439453,45.097862
2019-05-01,44.42165756225586,45.29966
2019-05-02,44.64576721191406,45.45185
2019-05-03,44.87922286987305,45.57322
2019-05-06,44.552391052246094,45.679558
2019-05-07,43.61857223510742,45.750378
2019-05-08,43.45048522949219,45.739445
2019-05-09,43.37578582763672,45.662716
2019-05-10,43.2730598449707,45.539593
2019-05-13,41.25601577758789,45.386208
2019-05-14,41.09726333618164,45.105556
2019-05-15,40.99454879760742,44.743782
2019-05-16,41.34939193725586,44.339428
2019-05-17,40.975868225097656,43.949997
2019-05-20,40.96653366088867,43.57345
2019-05-21,41.452117919921875,43.228127
2019-05-22,40.61168670654297,42.95276
2019-05-23,39.883304595947266,42.694115
2019-05-24,40.11676025390625,42.420452
2019-05-28,39.379051208496094,42.16392
2019-05-29,39.39772033691406,41.891365
2019-05-30,39.06154251098633,41.62278
2019-05-31,37.996986389160156,41.353073
2019-06-03,38.03435516357422,41.037155
2019-06-04,39.66852569580078,40.707718
2019-06-05,39.62183380126953,40.48034
2019-06-06,39.9766845703125,40.33604
2019-06-07,39.87397003173828,40.27974
2019-06-10,40.42491912841797,40.28235
2019-06-11,40.77976608276367,40.356903
2019-06-12,39.79926300048828,40.496834
2019-06-13,40.107421875,40.61737
2019-06-14,39.98603057861328,40.733253
2019-06-17,39.69654083251953,40.83099
2019-06-18,40.47161102294922,40.89324
2019-06-19,40.284847259521484,40.970654
2019-06-20,40.58366394042969,41.04369
2019-06-21,40.69572448730469,41.127533
2019-06-24,40.219478607177734,41.22093
2019-06-25,39.83661651611328,41.28881
2019-06-26,40.144775390625,41.31222
2019-06-27,40.61168670654297,41.320946
2019-06-28,40.910499572753906,41.345547
2019-07-01,41.04124450683594,41.397846
2019-07-02,40.92918014526367,41.474594
2019-07-03,41.078590393066406,41.55826
2019-07-05,41.28403091430664,41.650597
2019-07-08,40.61168670654297,41.754642
2019-07-09,40.882484436035156,41.822414
2019-07-10,40.44359588623047,41.876316
2019-07-11,41.25601577758789,41.891487
2019-07-12,41.90034866333008,41.92538
2019-07-15,41.489471435546875,42.007523
2019-07-16,41.489471435546875,42.096146
2019-07-17,40.87315368652344,42.185112
2019-07-18,41.489471435546875,42.234123
2019-07-19,41.452117919921875,42.286316
2019-07-22,41.554840087890625,42.33546
2019-07-23,42.11512756347656,42.385777
2019-07-24,42.48866271972656,42.46659
2019-07-25,41.90034866333008,42.58582
2019-07-26,42.71277618408203,42.691498
2019-07-29,42.23652648925781,42.82848
2019-07-30,42.03889465332031,42.951664
2019-07-31,41.93537139892578,43.04671
2019-08-01,40.4013786315918,43.110466
2019-08-02,39.63909149169922,43.060093
2019-08-05,38.1051025390625,42.88883
2019-08-06,38.79210662841797,42.554214
2019-08-07,38.17097473144531,42.16343
2019-08-08,38.83915710449219,41.72126
2019-08-09,39.055606842041016,41.309044
2019-08-12,37.98276138305664,40.955738
2019-08-13,38.29331588745117,40.60465
2019-08-14,37.01342010498047,40.293144
2019-08-15,36.796966552734375,39.953613
2019-08-16,37.58749008178711,39.60068
2019-08-19,37.99216079711914,39.302116
2019-08-20,37.54985427856445,39.081352
2019-08-21,37.58749008178711,38.90363
2019-08-22,37.89805603027344,38.767834
2019-08-23,37.01342010498047,38.686317
2019-08-26,37.79454040527344,38.596397
2019-08-27,37.446327209472656,38.548462
2019-08-28,38.00157928466797,38.51216
2019-08-29,38.85797882080078,38.517048
2019-08-30,39.046199798583984,38.59941
2019-09-03,38.575653076171875,38.74229
2019-09-04,39.083839416503906,38.8929
2019-09-05,39.968475341796875,39.06845
2019-09-06,39.695552825927734,39.3008
2019-09-09,40.57078170776367,39.543835
2019-09-10,41.013099670410156,39.830696
2019-09-11,41.35189437866211,40.15636
2019-09-12,41.70950698852539,40.510235
2019-09-13,42.500038146972656,40.883976
2019-09-16,42.11418151855469,41.29465
2019-09-17,41.60599136352539,41.68594
2019-09-18,41.747154235839844,42.01158
2019-09-19,41.427181243896484,42.280552
2019-09-20,41.09779739379883,42.475082
2019-09-23,40.99427795410156,42.588196
2019-09-24,40.03435134887695,42.63218
2019-09-25,40.50489807128906,42.570667
2019-09-26,40.10963821411133,42.46713
2019-09-27,40.31668472290039,42.3179
2019-09-30,40.15669631958008,42.159096
2019-10-01,38.94268035888672,41.995148
2019-10-02,37.86041259765625,41.768585
2019-10-03,37.87923049926758,41.44917
2019-10-04,38.378021240234375,41.083473
2019-10-07,38.28390884399414,40.734642
2019-10-08,37.47456741333008,40.412903
2019-10-09,38.058040618896484,40.084366
2019-10-10,38.632118225097656,39.802723
2019-10-11,39.46028518676758,39.60292
2019-10-14,39.76143264770508,39.51965
2019-10-15,40.024940490722656,39.540222
2019-10-16,40.26962661743164,39.647026
2019-10-17,40.881343841552734,39.821445
2019-10-18,41.0883903503418,40.066853
2019-10-21,42.33063888549805,40.35807
2019-10-22,42.707069396972656,40.734974
2019-10-23,43.20585632324219,41.171097
2019-10-24,43.0646858215332,41.651936
2019-10-25,43.63875961303711,42.127743
2019-10-28,44.08107376098633,42.604782
2019-10-29,44.07166290283203,43.07935
2019-10-30,43.86306381225586,43.52425
2019-10-31,43.66394805908203,43.911102
2019-11-01,44.87762451171875,44.223335
2019-11-04,46.299903869628906,44.53514
2019-11-05,46.22404479980469,44.91139
2019-11-06,46.04389190673828,45.308495
2019-11-07,46.13870620727539,45.689075
2019-11-08,46.60332107543945,46.041237
2019-11-11,46.54643249511719,46.379757
2019-11-12,46.470577239990234,46.685703
2019-11-13,45.8827018737793,46.946785
2019-11-14,46.0912971496582,47.12779
2019-11-15,46.451622009277344,47.255
2019-11-18,46.48953628540039,47.358467
2019-11-19,46.77399826049805,47.44231
2019-11-20,46.555912017822266,47.52501
2019-11-21,46.30937957763672,47.590984
2019-11-22,46.69813919067383,47.627953
2019-11-25,47.37135314941406,47.665207
2019-11-26,46.84984588623047,47.739273
2019-11-27,47.200679779052734,47.80528
2019-11-29,46.91622543334961,47.882618
2019-12-02,46.53695297241211,47.946808
2019-12-03,45.61720657348633,47.975998
2019-12-04,46.30937957763672,47.926025
2019-12-05,46.5274658203125,47.862854
2019-12-06,47.219642639160156,47.806473
2019-12-09,47.03000259399414,47.798843
2019-12-10,47.096378326416016,47.81599
2019-12-11,46.887779235839844,47.854008
2019-12-12,48.06352996826172,47.892025
2019-12-13,47.6368522644043,47.995243
2019-12-16,48.09197235107422,48.113018
2019-12-17,48.26264953613281,48.26126
2019-12-18,48.03508377075195,48.431427
2019-12-19,48.2247200012207,48.593052
2019-12-20,48.06352996826172,48.749847
2019-12-23,48.09197235107422,48.884426
2019-12-24,48.06352996826172,48.997303
2019-12-26,48.46176528930664,49.086494
2019-12-27,48.44280242919922,49.177177
2019-12-30,48.31953811645508,49.26264
2019-12-31,48.47124481201172,49.333324
2020-01-02,49.34358596801758,49.398655
2020-01-03,48.5471076965332,49.506927
2020-01-06,48.37643051147461,49.59317
2020-01-07,48.2816047668457,49.64966
2020-01-08,48.897926330566406,49.67599
2020-01-09,49.362545013427734,49.715416
2020-01-10,49.50476837158203,49.78878
2020-01-13,50.04523849487305,49.890083
2020-01-14,50.12109375,50.037178
2020-01-15,50.19694137573242,50.21185
2020-01-16,53.515586853027344,50.399986
2020-01-17,54.530155181884766,50.77837
2020-01-21,53.02253723144531,51.326572
2020-01-22,52.96564865112305,51.875034
2020-01-23,52.652748107910156,52.388035
2020-01-24,51.7235221862793,52.824764
2020-01-27,50.35813903808594,53.12703
2020-01-28,51.22098922729492,53.237648
2020-01-29,50.89860153198242,53.258907
2020-01-30,51.36626434326172,53.197525
2020-01-31,49.87738800048828,53.112328
2020-02-03,50.20188522338867,52.93096
2020-02-04,51.557151794433594,52.714333
2020-02-05,52.4829216003418,52.565025
2020-02-06,52.50200271606445,52.526157
2020-02-07,52.521095275878906,52.56951
2020-02-10,52.82650375366211,52.669632
2020-02-11,53.236900329589844,52.820686
2020-02-12,53.6186637878418,53.020813
2020-02-13,53.380062103271484,53.26445
2020-02-14,53.29417037963867,53.509403
2020-02-18,52.9887580871582,53.73548
2020-02-19,53.742740631103516,53.915787
2020-02-20,51.29945755004883,54.097256
2020-02-21,50.03008270263672,54.126156
2020-02-24,47.415008544921875,53.974766
2020-02-25,45.84023666381836,53.5538
2020-02-26,45.08625793457031,52.878933
2020-02-27,43.339691162109375,52.023678
2020-02-28,42.97700881958008,50.99334
2020-03-02,44.360904693603516,49.88323
2020-03-03,42.375736236572266,48.865166
2020-03-04,43.177433013916016,47.857983
2020-03-05,40.64825439453125,46.965004
2020-03-06,39.93244934082031,46.058544
2020-03-09,35.79031753540039,45.153683
2020-03-10,37.699134826660156,44.062252
2020-03-11,35.18903732299805,43.009506
2020-03-12,29.88252830505371,41.89931
2020-03-13,35.79031753540039,40.5112
2020-03-16,30.2070255279541,39.340252
2020-03-17,32.24945831298828,38.071503
2020-03-18,29.348058700561523,36.924572
2020-03-19,29.51030731201172,35.76394
2020-03-20,28.31730079650879,34.6676
2020-03-23,26.542098999023438,33.60919
2020-03-24,31.705446243286133,32.536186
2020-03-25,32.440345764160156,31.799685
2020-03-26,34.0819206237793,31.385517
2020-03-27,32.45943069458008,31.316679
2020-03-30,33.2515869140625,31.403564
2020-03-31,32.449886322021484,31.63468
2020-04-01,30.17839241027832,31.90351
2020-04-02,32.35444641113281,32.050865
2020-04-03,32.306724548339844,32.219032
2020-04-06,35.32265853881836,32.388405
2020-04-07,35.2558479309082,32.71887
2020-04-08,37.57505798339844,33.1439
2020-04-09,39.20709991455078,33.744446
2020-04-13,37.77548599243164,34.52785
2020-04-14,38.042724609375,35.31605
2020-04-15,36.64928436279297,36.07606
2020-04-16,36.61110305786133,36.68915
2020-04-17,37.30781936645508,37.159992
2020-04-20,36.61110305786133,37.540806
2020-04-21,35.2653923034668,37.799
2020-04-22,36.086181640625,37.880497
2020-04-23,35.76168441772461,37.88323
2020-04-24,36.238887786865234,37.81237
2020-04-27,37.51779556274414,37.72279
2020-04-28,38.300411224365234,37.704643
2020-04-29,39.2728385925293,37.780605
2020-04-30,37.96342468261719,37.979065
2020-05-01,36.971744537353516,38.177155
2020-05-04,36.67326354980469,38.307377
2020-05-05,36.567359924316406,38.36213
2020-05-06,35.91265106201172,38.352524
2020-05-07,37.36648941040039,38.263165
2020-05-08,38.58925247192383,38.203785
2020-05-11,38.34855651855469,38.240147
2020-05-12,36.99099349975586,38.32955
2020-05-13,35.61418533325195,38.37621
2020-05-14,36.4036865234375,38.31017
2020-05-15,35.90302276611328,38.210712
2020-05-18,38.78181076049805,38.066063
2020-05-19,37.86715316772461,38.061123
2020-05-20,39.532806396484375,38.106274
2020-05-21,38.80107116699219,38.279297
2020-05-22,38.637393951416016,38.49197
2020-05-26,42.064979553222656,38.71022
2020-05-27,45.11707305908203,39.111988
2020-05-28,42.748573303222656,39.795086
2020-05-29,42.55601119995117,40.503433
2020-06-01,43.03741455078125,41.177254
2020-06-02,43.88468551635742,41.811615
2020-06-03,45.16521453857422,42.42723
2020-06-04,46.87900924682617,43.066944
2020-06-05,47.68776321411133,43.786896
2020-06-08,48.284706115722656,44.569397
2020-06-09,48.5254020690918,45.386726
2020-06-10,46.87900924682617,46.195683
2020-06-11,42.91225051879883,46.856335
2020-06-12,44.55864334106445,47.14516
2020-06-15,45.63698959350586,47.24957
2020-06-16,46.75384521484375,47.280087
2020-06-17,45.98359680175781,47.32579
2020-06-18,45.81029510498047,47.33993
2020-06-19,45.18447494506836,47.32473
2020-06-22,45.61773681640625,47.255936
2020-06-23,46.108760833740234,47.179153
2020-06-24,45.20372772216797,47.129223
2020-06-25,46.97529220581055,47.049294
2020-06-26,45.30000305175781,47.055717
2020-06-29,45.48294448852539,47.026222
2020-06-30,46.503509521484375,46.984116
2020-07-01,45.839176177978516,46.994343
2020-07-02,46.012481689453125,47.000694
2020-07-06,47.00416946411133,47.01538
2020-07-07,45.72364807128906,47.090744
2020-07-08,47.090824127197266,47.130543
2020-07-09,45.74289321899414,47.223484
2020-07-10,47.947723388671875,47.269344
2020-07-13,48.35210037231445,47.405067
2020-07-14,48.62168884277344,47.61931
2020-07-15,49.44007110595703,47.89314
2020-07-16,50.68209457397461,48.240173
2020-07-17,50.46064376831055,48.68963
2020-07-20,49.93110275268555,49.171455
2020-07-21,50.4317626953125,49.616425
2020-07-22,49.10309600830078,50.03726
2020-07-23,48.67945861816406,50.33812
2020-07-24,48.3135871887207,50.512302
2020-07-27,49.41119384765625,50.56533
2020-07-28,48.39060974121094,50.597
2020-07-29,48.70833969116211,50.553864
2020-07-30,47.457672119140625,50.482033
2020-07-31,47.38980484008789,50.322227
2020-08-03,47.95212173461914,50.1081
2020-08-04,47.75822067260742,49.901115
2020-08-05,48.25267028808594,49.701214
2020-08-06,47.94242477416992,49.547806
2020-08-07,48.81498718261719,49.417854
2020-08-10,49.0379753112793,49.363712
2020-08-11,50.20138931274414,49.37689
2020-08-12,50.78310012817383,49.50438
2020-08-13,50.589195251464844,49.737717
2020-08-14,50.705535888671875,50.019215
2020-08-17,49.71663284301758,50.324036
2020-08-18,49.36760330200195,50.568565
2020-08-19,49.80388641357422,50.734344
2020-08-20,49.25127029418945,50.860203
2020-08-21,49.542118072509766,50.917408
2020-08-24,50.77339553833008,50.942394
2020-08-25,50.463157653808594,51.014694
2020-08-26,50.133522033691406,51.098923
2020-08-27,51.00608444213867,51.169365
2020-08-28,51.27754592895508,51.2771
2020-08-31,50.6667594909668,51.41948
2020-09-01,50.97700500488281,51.542637
2020-09-02,51.62657165527344,51.663662
2020-09-03,51.141815185546875,51.81238
2020-09-04,51.1030387878418,51.94383
2020-09-08,48.64046859741211,52.05371
2020-09-09,49.50334167480469,51.99928
2020-09-10,48.75681686401367,51.88291
2020-09-11,48.81498718261719,51.685894
2020-09-14,49.59059524536133,51.448418
2020-09-15,48.853763580322266,51.2429
2020-09-16,49.59059524536133,51.03053
2020-09-17,48.71803665161133,50.869804
2020-09-18,48.55321502685547,50.70426
2020-09-21,46.88565444946289,50.535736
2020-09-22,46.177913665771484,50.278095
2020-09-23,45.004798889160156,49.93165
2020-09-24,45.18900680541992,49.474716
2020-09-25,45.605899810791016,48.97742
2020-09-28,46.90504837036133,48.50472
2020-09-29,45.7998046875,48.153023
2020-09-30,46.87595748901367,47.84374
2020-10-01,45.81918716430664,47.645638
2020-10-02,46.50755310058594,47.47512
2020-10-05,47.11833572387695,47.37256
2020-10-06,46.2845573425293,47.357136
2020-10-07,47.2249870300293,47.35495
2020-10-08,47.506141662597656,47.414944
2020-10-09,47.34132766723633,47.529564
2020-10-12,49.19309997558594,47.666264
2020-10-13,48.902244567871094,47.916447
2020-10-14,49.10584259033203,48.21365
2020-10-15,49.76511001586914,48.538914
2020-10-16,50.26925277709961,48.902103
2020-10-19,49.396697998046875,49.29851
2020-10-20,49.90084457397461,49.644325
2020-10-21,48.84407424926758,49.96264
2020-10-22,50.19169616699219,50.182228
2020-10-23,50.28864288330078,50.39776
2020-10-26,48.7859001159668,50.603584
2020-10-27,47.108642578125,50.70541
2020-10-28,46.11973571777344,50.632034
2020-10-29,46.9987678527832,50.383747
2020-10-30,47.028072357177734,50.077957
2020-11-02,48.22941207885742,49.75276
2020-11-03,49.98746871948242,49.50463
2020-11-04,50.23164749145508,49.428913
2020-11-05,50.98370361328125,49.494175
2020-11-06,50.49535369873047,49.699516
2020-11-09,54.714691162109375,49.961662
2020-11-10,54.45098876953125,50.491524
2020-11-11,55.02723693847656,51.15881
2020-11-12,54.25564193725586,51.917862
2020-11-13,55.29094696044922,52.648224
2020-11-16,56.7559928894043,53.37425
2020-11-17,57.4396858215332,54.137154
2020-11-18,57.4396858215332,54.919514
2020-11-19,57.26388168334961,55.67055
2020-11-20,56.462989807128906,56.345383
2020-11-23,58.86566925048828,56.88034
2020-11-24,62.118072509765625,57.428127
2020-11-25,62.00087356567383,58.14173
2020-11-27,62.352481842041016,58.923653
2020-11-30,60.389320373535156,59.731064
2020-12-01,61.8055305480957,60.39267
2020-12-02,62.528289794921875,60.996735
2020-12-03,62.567352294921875,61.565197
2020-12-04,63.48545455932617,62.077488
2020-12-07,62.7626953125,62.576706
2020-12-08,62.42085266113281,62.994568
2020-12-09,62.87013626098633,63.3124
2020-12-10,62.93851089477539,63.568985
2020-12-11,61.844600677490234,63.77236
2020-12-14,60.43815231323242,63.864254
2020-12-15,62.459922790527344,63.792183
2020-12-16,62.7333984375,63.731564
2020-12-17,63.16313934326172,63.697533
2020-12-18,62.68456268310547,63.71142
2020-12-21,66.24951934814453,63.73099
2020-12-22,65.08724212646484,63.964264
2020-12-23,66.62065887451172,64.262054
2020-12-24,66.50344848632812,64.67852
2020-12-28,66.46439361572266,65.14294
2020-12-29,66.13230895996094,65.60949
2020-12-30,66.25926971435547,66.029015
2020-12-31,66.9332046508789,66.39731
2021-01-04,66.73786926269531,66.7465
2021-01-05,67.87083435058594,67.04915
2021-01-06,71.96321105957031,67.36955
2021-01-07,73.19384002685547,67.924866
2021-01-08,73.49662017822266,68.681595
2021-01-11,74.28775024414062,69.55269
2021-01-12,74.0338134765625,70.49633
2021-01-13,73.79939270019531,71.415726
2021-01-14,74.68819427490234,72.24668
2021-01-15,73.48685455322266,73.01877
2021-01-19,73.24267578125,73.629425
2021-01-20,73.09617614746094,74.07902
2021-01-21,72.95943450927734,74.382164
2021-01-22,72.40271759033203,74.5586
2021-01-25,70.69348907470703,74.606
2021-01-26,69.5507583618164,74.46278
2021-01-27,66.82576751708984,74.13252
2021-01-28,68.05291748046875,73.53289
2021-01-29,65.82440948486328,72.86095
2021-02-01,66.43307495117188,72.04708
2021-02-02,69.65312194824219,71.22554
2021-02-03,69.30951690673828,70.63901
2021-02-04,70.9686279296875,70.228096
2021-02-05,71.88162994384766,70.0669
2021-02-08,72.8731689453125,70.13852
2021-02-09,72.88298797607422,70.42497
2021-02-10,72.9713363647461,70.83964
2021-02-11,72.37249755859375,71.320625
2021-02-12,73.24622344970703,71.77922
2021-02-16,74.65990447998047,72.24455
2021-02-17,74.07086181640625,72.76734
2021-02-18,73.46219635009766,73.26071
2021-02-19,74.61080932617188,73.66956
2021-02-22,75.9852294921875,74.065056
2021-02-23,76.08338928222656,74.50655
2021-02-24,78.41988372802734,74.95826
2021-02-25,76.99639892578125,75.53095
2021-02-26,75.46491241455078,76.06464
2021-03-01,77.71305847167969,76.451
2021-03-02,79.31326293945312,76.847885
2021-03-03,80.5600357055664,77.31825
2021-03-04,79.62741088867188,77.885284
2021-03-05,79.39179992675781,78.42887
2021-03-08,79.61758422851562,78.91156
2021-03-09,79.37216186523438,79.33559
2021-03-10,81.57121276855469,79.67724
2021-03-11,81.7282943725586,80.07387
2021-03-12,82.7983627319336,80.49009
2021-03-15,82.32714080810547,80.96189
2021-03-16,81.0312728881836,81.412865
2021-03-17,82.32714080810547,81.746666
2021-03-18,82.40568542480469,82.05963
2021-03-19,81.42395782470703,82.339294
2021-03-22,80.42259979248047,82.521736
2021-03-23,77.67378997802734,82.56824
2021-03-24,77.87995147705078,82.35524
2021-03-25,78.66532897949219,81.99359
2021-03-26,78.51807403564453,81.59765
2021-03-29,76.45645141601562,81.19376
2021-03-30,77.64433288574219,80.68916
2021-03-31,76.240478515625,80.22231
2021-04-01,76.79023742675781,79.72275
2021-04-05,76.57425689697266,79.26746
2021-04-06,77.64433288574219,78.85652
2021-04-07,77.59524536132812,78.56574
2021-04-08,78.73403930664062,78.37009
2021-04-09,79.24453735351562,78.32098
2021-04-12,78.71440887451172,78.402534
2021-04-13,78.0762939453125,78.536255
2021-04-14,79.31326293945312,78.66041
2021-04-15,79.34271240234375,78.84305
2021-04-16,77.1534652709961,79.05259
2021-04-19,78.56714630126953,79.13604
2021-04-20,75.87723541259766,79.21541
2021-04-21,77.80140686035156,79.122215
2021-04-22,76.85895538330078,79.03601
2021-04-23,79.47032928466797,78.900185
2021-04-26,80.02991485595703,78.89762
2021-04-27,80.46186828613281,79.0175
2021-04-28,81.21780395507812,79.24151
2021-04-29,82.46002197265625,79.568665
2021-04-30,81.38540649414062,80.02047
2021-05-03,81.29666137695312,80.46302
2021-05-04,81.47412872314453,80.86763
2021-05-05,83.3177490234375,81.229996
2021-05-06,85.60501861572266,81.64972
2021-05-07,86.46273803710938,82.218285
2021-05-10,85.2500991821289,82.90388
2021-05-11,83.72196197509766,83.55515
2021-05-12,82.49945831298828,84.052666
2021-05-13,83.66281127929688,84.342354
2021-05-14,86.11767578125,84.54084
2021-05-17,86.84724426269531,84.80995
2021-05-18,85.7430419921875,85.15253
2021-05-19,84.83602905273438,85.46089
2021-05-20,85.2500991821289,85.67577
2021-05-21,87.09371185302734,85.8396
2021-05-24,88.42467498779297,86.06738
2021-05-25,87.60637664794922,86.40191
2021-05-26,88.08946228027344,86.73928
2021-05-27,89.02606964111328,87.09042
2021-05-28,89.66688537597656,87.48357
2021-06-01,90.8105239868164,87.91707
2021-06-02,91.45136260986328,88.42058
2021-06-03,92.03303527832031,88.976234
2021-06-04,92.63442993164062,89.56899
2021-06-07,91.89501190185547,90.184616
2021-06-08,91.4809341430664,90.73279
2021-06-09,91.36263275146484,91.176506
2021-06-10,90.3865966796875,91.513985
2021-06-11,90.75138092041016,91.69892
2021-06-14,89.44013977050781,91.79277
2021-06-15,89.42041778564453,91.73822
2021-06-16,89.81477355957031,91.58912
2021-06-17,86.66979217529297,91.4091
2021-06-18,82.90367126464844,91.0304
2021-06-21,84.72757720947266,90.32071
2021-06-22,84.49095916748047,89.54437
2021-06-23,84.6585693359375,88.74943
2021-06-24,85.85149383544922,88.0041
2021-06-25,87.15287017822266,87.41227
2021-06-28,86.46273803710938,87.0402
2021-06-29,89.36126708984375,86.79938
2021-06-30,90.39645385742188,86.838974
2021-07-01,90.72179412841797,87.12267
2021-07-02,90.73165893554688,87.5739
2021-07-06,88.93733215332031,88.11088
2021-07-07,88.75987243652344,88.56291
2021-07-08,86.4035873413086,88.91849
2021-07-09,89.0556411743164,89.04014
2021-07-12,91.44149780273438,89.15782
2021-07-13,91.89501190185547,89.40274
2021-07-14,91.15558624267578,89.745384
2021-07-15,91.32318878173828,90.09212
2021-07-16,89.96266174316406,90.43293
2021-07-19,88.08946228027344,90.665245
2021-07-20,91.01757049560547,90.69821
2021-07-21,94.33016204833984,90.771576
2021-07-22,94.22171783447266,91.06069
2021-07-23,93.21611022949219,91.46932
2021-07-26,95.17803192138672,91.87749
2021-07-27,95.11888122558594,92.38118
2021-07-28,94.71466064453125,92.90863
2021-07-29,95.618408203125,93.39586
2021-07-30,95.32047271728516,93.880066
2021-08-02,95.56875610351562,94.30989
2021-08-03,95.93621063232422,94.6917
2021-08-04,95.62834167480469,95.04019
2021-08-05,97.15776062011719,95.324554
2021-08-06,99.04470825195312,95.641594
2021-08-09,100.04776000976562,96.072525
2021-08-10,101.33882904052734,96.61237
2021-08-11,103.16618347167969,97.270004
2021-08-12,103.95075225830078,98.076256
2021-08-13,103.22577667236328,98.975975
2021-08-16,103.00728607177734,99.836975
2021-08-17,102.16313171386719,100.605095
2021-08-18,100.56419372558594,101.20854
2021-08-19,99.04470825195312,101.56645
2021-08-20,99.96831512451172,101.64556
2021-08-23,101.4580078125,101.59115
2021-08-24,102.3816146850586,101.53754
2021-08-25,103.37474060058594,101.54238
2021-08-26,103.12645721435547,101.6481
2021-08-27,104.72539520263672,101.80112
2021-08-30,103.37474060058594,102.07545
2021-08-31,103.71240997314453,102.32838
2021-09-01,103.59323120117188,102.576645
2021-09-02,104.10965728759766,102.79608
2021-09-03,103.53364562988281,103.01182
2021-09-07,103.46412658691406,103.17437
2021-09-08,102.85831451416016,103.288925
2021-09-09,103.12645721435547,103.32618
2021-09-10,102.90797424316406,103.326485
2021-09-13,103.6826171875,103.288
2021-09-14,101.20972442626953,103.27352
2021-09-15,102.33196258544922,103.12482
2021-09-16,101.76587677001953,102.97019
2021-09-17,101.05081939697266,102.782104
2021-09-20,97.95226287841797,102.5428
2021-09-21,97.6245346069336,102.097984
2021-09-22,100.10735321044922,101.52918
2021-09-23,102.83845520019531,101.06083
2021-09-24,102.2028579711914,100.8494
2021-09-27,104.37779998779297,100.783554
2021-09-28,101.33882904052734,100.95725
2021-09-29,98.8659439086914,101.09266
2021-09-30,96.64132690429688,101.05125
2021-10-01,98.36937713623047,100.7592
2021-10-04,96.48242950439453,100.421394
2021-10-05,98.51834106445312,99.95304
2021-10-06,98.41902923583984,99.55556
2021-10-07,98.12109375,99.220116
2021-10-08,99.35257720947266,98.93311
2021-10-11,96.62146759033203,98.77307
2021-10-12,97.10810089111328,98.541595
2021-10-13,97.8926773071289,98.31181
2021-10-14,100.31591033935547,98.14151
2021-10-15,101.43814086914062,98.16646
2021-10-18,100.71316528320312,98.385574
2021-10-19,101.05081939697266,98.678116
2021-10-20,99.96831512451172,99.02506
2021-10-21,99.5909194946289,99.31872
2021-10-22,101.10047912597656,99.536255
2021-10-25,101.20972442626953,99.77856
2021-10-26,102.75900268554688,100.02467
2021-10-27,101.16999816894531,100.351974
2021-10-28,102.5,100.61548
2021-10-29,102.77999877929688,100.90468
2021-11-01,104.0,101.20565
2021-11-02,104.66000366210938,101.569084
2021-11-03,102.61000061035156,101.99031
2021-11-04,99.79000091552734,102.29997
2021-11-05,99.87000274658203,102.348976
2021-11-08,100.06999969482422,102.227104
2021-11-09,99.70999908447266,102.00689
2021-11-10,97.7699966430664,101.710464
2021-11-11,98.87999725341797,101.26633
2021-11-12,99.8499984741211,100.82355
2021-11-15,100.20999908447266,100.466286
2021-11-16,100.69000244140625,100.20981
2021-11-17,97.68000030517578,100.06915
2021-11-18,97.68000030517578,99.83254
2021-11-19,96.91000366210938,99.55285
2021-11-22,99.31999969482422,99.21169
2021-11-23,101.86000061035156,98.995544
2021-11-24,101.12000274658203,99.02615
2021-11-26,97.93000030517578,99.17403
2021-11-29,97.2300033569336,99.20378
2021-11-30,94.81999969482422,99.11513
2021-12-01,95.26000213623047,98.80237
2021-12-02,98.86000061035156,98.387665
2021-12-03,98.20999908447266,98.143875
2021-12-06,99.2699966430664,97.98515
2021-12-07,102.5,97.96523
2021-12-08,101.25,98.234535
2021-12-09,100.58000183105469,98.60147
2021-12-10,98.43000030517578,98.975044
2021-12-13,97.16999816894531,99.19949
2021-12-14,98.81999969482422,99.23414
2021-12-15,99.43000030517578,99.23754
2021-12-16,100.30000305175781,99.25058
2021-12-17,97.12999725341797,99.32183
2021-12-20,95.37000274658203,99.23594
2021-12-21,97.7699966430664,98.95231
2021-12-22,98.30000305175781,98.69941
2021-12-23,99.33999633789062,98.507835
2021-12-27,100.4000015258789,98.43404
2021-12-28,99.97000122070312,98.50945
2021-12-29,98.7300033569336,98.65444
2021-12-30,98.80000305175781,98.76394
2021-12-31,98.16000366210938,98.84846
2022-01-03,100.19000244140625,98.86834
2022-01-04,104.26000213623047,98.967476
2022-01-05,101.68000030517578,99.35495
2022-01-06,103.41999816894531,99.75072
2022-01-07,104.05000305175781,100.24266
2022-01-10,104.12999725341797,100.79962
2022-01-11,105.91999816894531,101.368004
2022-01-12,103.05000305175781,102.017075
2022-01-13,102.55000305175781,102.49992
2022-01-14,98.87999725341797,102.81812
2022-01-18,94.01000213623047,102.78131
2022-01-19,95.7300033569336,102.21813
2022-01-20,99.83000183105469,101.44835
2022-01-21,98.86000061035156,100.82824
2022-01-24,98.08000183105469,100.282364
2022-01-25,99.04000091552734,99.78422
2022-01-26,100.16999816894531,99.41162
2022-01-27,101.1500015258789,99.21396
